<svg 
 xmlns="http://www.w3.org/2000/svg"
 xmlns:xlink="http://www.w3.org/1999/xlink"
 width="19px" height="13px">
<path fill-rule="evenodd"  fill="rgb(0, 126, 197)"
 d="M19.000,6.496 C19.000,6.338 18.935,6.188 18.826,6.074 L12.949,0.167 C12.716,-0.066 12.340,-0.064 12.109,0.167 C11.877,0.401 11.877,0.780 12.109,1.012 L16.973,5.900 L0.594,5.900 C0.266,5.900 0.000,6.165 0.000,6.496 C0.000,6.826 0.266,7.092 0.594,7.092 L16.973,7.092 L12.109,11.981 C11.877,12.214 11.877,12.592 12.109,12.825 C12.341,13.057 12.717,13.057 12.949,12.825 L18.826,6.918 C18.937,6.807 18.998,6.653 19.000,6.496 Z"/>
</svg>