<?xml version="1.0" encoding="utf-8"?>
<!-- Generator: Adobe Illustrator 22.0.1, SVG Export Plug-In . SVG Version: 6.00 Build 0)  -->
<svg version="1.1" id="Layer_1" xmlns:sketch="http://www.bohemiancoding.com/sketch/ns"
	 xmlns="http://www.w3.org/2000/svg" xmlns:xlink="http://www.w3.org/1999/xlink" x="0px" y="0px" viewBox="0 0 50 50"
	 style="enable-background:new 0 0 50 50;" xml:space="preserve">
<style type="text/css">
	.st0{fill:#FFFFFF;}
</style>
<title></title>
<g id="Page-1">
	<g id="Google-_x2B_">
		<path id="Oval-1" class="st0" d="M42.2,19.9h-4v-5.2H36v5.2h-5.2v2.2H36v5.3h2.2v-5.3H43C42.8,21.4,42.5,20.6,42.2,19.9z
			 M42.2,19.9h-4v-5.2H36v5.2h-5.2v2.2H36v5.3h2.2v-5.3H43C42.8,21.4,42.5,20.6,42.2,19.9z M42.2,19.9h-4v-5.2H36v5.2h-5.2v2.2H36
			v5.3h2.2v-5.3H43C42.8,21.4,42.5,20.6,42.2,19.9z M42.2,19.9h-4v-5.2H36v5.2h-5.2v2.2H36v5.3h2.2v-5.3H43
			C42.8,21.4,42.5,20.6,42.2,19.9z M42.2,19.9h-4v-5.2H36v5.2h-5.2v2.2H36v5.3h2.2v-5.3H43C42.8,21.4,42.5,20.6,42.2,19.9z
			 M42.2,19.9h-4v-5.2H36v5.2h-5.2v2.2H36v5.3h2.2v-5.3H43C42.8,21.4,42.5,20.6,42.2,19.9z M42.2,19.9h-4v-5.2H36v5.2h-5.2v2.2H36
			v5.3h2.2v-5.3H43C42.8,21.4,42.5,20.6,42.2,19.9z M42.2,19.9h-4v-5.2H36v5.2h-5.2v2.2H36v5.3h2.2v-5.3H43
			C42.8,21.4,42.5,20.6,42.2,19.9z M42.2,19.9h-4v-5.2H36v5.2h-5.2v2.2H36v5.3h2.2v-5.3H43C42.8,21.4,42.5,20.6,42.2,19.9z"/>
		<path class="st0" d="M25,0C11.2,0,0,11.2,0,25s11.2,25,25,25s25-11.2,25-25S38.8,0,25,0z M24.4,47C24.4,47,24.4,47,24.4,47
			c-4.5-0.1-8.6-1.6-12-4c-0.1-0.3-0.1-0.7-0.1-1c0-3.3,3-4.5,4-4.8c2-0.6,4.5-0.7,4.9-0.7c0.5,0,0.7,0,1.1,0
			c3.6,2.5,5.1,3.8,5.1,6.2C27.4,44.5,26.4,46.1,24.4,47c0.1,0,0.2,0,0.2,0C24.5,47,24.5,47,24.4,47z M20.5,28.9
			c-4,0-5.9-5.2-5.9-8.4c0-1.2,0.2-2.5,1-3.5c0.8-0.9,2.1-1.6,3.3-1.6c3.9,0,5.9,5.2,5.9,8.6c0,0.8-0.1,2.3-1.2,3.4
			C22.9,28.3,21.6,28.9,20.5,28.9z M25,47c-0.1,0-0.2,0-0.3,0c1,0,2-0.1,2.9-0.2c1.9-1.6,2.9-3.8,2.9-5.9c0-3.2-1.9-4.8-3.9-6.5
			L24.9,33c-0.5-0.4-1.2-1-1.2-2c0-1,0.7-1.7,1.3-2.3c2-1.5,3.9-3.2,3.9-6.6c0-3.6-2.2-5.4-3.3-6.3h2.9l3-1.7h-9.7
			c-2.5,0-5.7,0.4-8.4,2.6c-2,1.7-3,4.1-3,6.3c0,3.7,2.8,7.4,7.8,7.4c0.5,0,1-0.1,1.5-0.1c-0.2,0.5-0.5,1-0.5,1.8
			c0,1.5,0.8,2.4,1.4,3.2c-2.1,0.1-6,0.4-9,2.2C10.4,38,9.6,39,9,39.9h0c0,0-0.1,0.1,0,0.2C5.3,36.2,3,30.9,3,25C3,12.8,12.8,3,25,3
			s22,9.8,22,22S37.2,47,25,47z"/>
	</g>
</g>
</svg>
