<?xml version="1.0" encoding="utf-8"?>
<!-- Generator: Adobe Illustrator 23.0.0, SVG Export Plug-In . SVG Version: 6.00 Build 0)  -->
<svg id="img-type" version="1.1" xmlns="http://www.w3.org/2000/svg" xmlns:xlink="http://www.w3.org/1999/xlink" x="0px" y="0px"
	 viewBox="0 0 975.5 365.2" style="enable-background:new 0 0 975.5 365.2;" xml:space="preserve">
<style type="text/css">
	.img-type-st0{fill-rule:evenodd;clip-rule:evenodd;fill:#E5653A;}
	.img-type-st1{fill-rule:evenodd;clip-rule:evenodd;fill:#DDDDDE;}
	.img-type-st2{fill:none;stroke:#606477;stroke-width:3;stroke-linecap:round;stroke-linejoin:round;stroke-miterlimit:10;}
	.img-type-st3{fill-rule:evenodd;clip-rule:evenodd;fill:#002D4B;}
	.img-type-st4{fill-rule:evenodd;clip-rule:evenodd;fill:#BFC3C5;}
	.img-type-st5{fill-rule:evenodd;clip-rule:evenodd;fill:#606477;}
	.img-type-st6{fill-rule:evenodd;clip-rule:evenodd;fill:#f4bab9;}
	.img-type-st7{fill:none;stroke:#606477;stroke-width:1.86;stroke-linecap:round;stroke-linejoin:round;stroke-miterlimit:10;}
	.img-type-st8{fill-rule:evenodd;clip-rule:evenodd;fill:#03304A;}
	.img-type-st9{fill-rule:evenodd;clip-rule:evenodd;fill:#dbe4ec;}
	.img-type-st10{fill-rule:evenodd;clip-rule:evenodd;fill:#FFFFFF;}
</style>
<g id="img-type-c-main">
	<g>
		<path class="img-type-st0" d="M463.9,297.8c-23.3,0-45.2-10.1-65.4-21.5c-18.7-10.6-52.4-39.5-48.4-42.2c7.6-5.2,12.1-9.9,17.9-12.3
			c5-2.1,8.9-7.1,18.5-9.7c7.9,12.3,17.5,22.6,30.2,30c14,8.1,30.9,9.7,47.2,9.7c24.7,0,47.9-8.4,65.3-25.8
			c17.5-17.5,28.4-40.7,28.4-65.3s-11-47.6-28.4-65C512.6,79,485.8,67.6,466.1,69c-0.3,0-2.7-40,2.4-42.8
			c2.7-1.5,33.1,3.8,48.7,10.5c15.6,6.7,30,16.2,42.3,28.6C572.2,78,582,93,588.6,109.1c6.7,16.1,8.5,33.6,8.5,51.6
			s0.4,36.4-6.3,52.6s-20.3,28.6-33.1,41.3c-12.7,12.7-26,24.3-42.2,31C499.5,292.3,481.9,297.8,463.9,297.8"/>
		<g>
			<g>
				<path class="img-type-st1" d="M347.6,227.8c-12.3-20.8-18.5-42.8-18.5-67.1c0-18,3.6-35.4,10.3-51.6c6.7-16.2,15.1-32.3,27.9-45
					c12.4-12.5,27.7-21.8,43.4-28.5c15.8-6.7,53.2-14.3,53.3-9c0.1,17.5,1.4,17.6,0.4,25.5c-0.6,4.7,2.4,10-1.5,16.9
					c-23.8,0.6-47.9,9-64.8,25.9c-17.5,17.5-25.8,41-25.8,65.7c0,15.7,2.8,31.1,10.4,44.8c-1.9,10.2-11.7,10.1-16.9,13
					C360.2,221.5,358.7,227.1,347.6,227.8"/>
			</g>
		</g>
		<path class="img-type-st2" d="M463.9,249.6c-49.4,0-88.2-39.5-88.2-88.9s38.8-90.2,88.2-90.2s88.9,40.8,88.9,90.2
			C552.8,210.1,513.3,249.6,463.9,249.6z M463.9,22.2c-38.1,0-73.5,15.1-98.4,40.1c-25,25-38.8,60.3-38.8,98.4s14.4,73,39.4,97.9
			c25,25,59.8,38.9,97.9,38.9s73.4-13.5,98.4-38.4c25-25,41.2-60.3,41.2-98.4s-15.7-74-40.7-98.9C537.8,36.8,502,22.2,463.9,22.2z"
			/>
	</g>
</g>
<g id="img-type-c-text">
	<g>
		<g>
			<path class="img-type-st3" d="M432.5,156.5c-1.1-0.9-1.9-2-2.4-3.3s-0.7-2.2-0.7-2.6c-0.9-9.9-0.5-19.5,1.2-29c0.3-1.3,0.6-2.5,1-3.5
				s0.7-1.6,1.1-1.6s0.9,0.1,1.4,0.4c0.5,0.2,0.9,0.5,1.3,0.9s0.7,0.8,0.9,1.2c0.2,0.4,0.3,0.8,0.3,1.2c-1.2,6-1.9,12-2,18
				s0,11.9,0.4,17.9c0,0.6-0.3,1-0.8,1.1c-0.3,0.1-0.6,0-0.9-0.1C433.1,156.9,432.8,156.7,432.5,156.5z"/>
			<path class="img-type-st3" d="M470.1,130.3c0,1.4-0.2,3.1-0.7,5.2c-0.5,2.1-1.2,4.1-2.3,6.2c-1,2.1-2.4,4.1-4.1,5.9
				c-1.7,1.8-3.8,3.3-6.2,4.2c-1.5,0.7-3.1,1-4.6,1s-2.9-0.3-4-0.9c-1.2-0.6-2.2-1.6-3-2.8c-0.8-1.3-1.3-2.9-1.5-4.9
				c-0.2-2.4,0-4.8,0.6-7.2s1.5-4.7,2.8-6.8s2.8-4,4.6-5.7c1.8-1.7,3.8-3,6-4c0.5-0.2,1-0.2,1.4,0c0.5,0.3,0.8,0.8,0.9,1.7
				c3.2,0.3,5.7,1.1,7.5,2.5C469.2,126.3,470.1,128.1,470.1,130.3z M450.1,144.1c0.1,0.9,0.4,1.5,0.7,1.8c0.4,0.4,0.8,0.6,1.3,0.7
				c0.5,0.1,1,0,1.7-0.2c0.6-0.2,1.2-0.4,1.8-0.7c0.6-0.3,1.1-0.6,1.6-0.9c0.5-0.3,0.9-0.7,1.2-1c1.7-1.6,3.1-3.5,4.1-5.8
				s1.7-4.8,1.9-7.6c0-0.4-0.3-0.7-0.8-1.1c-0.5-0.4-1.1-0.6-1.9-0.9c-0.8-0.2-1.6-0.4-2.5-0.5c-0.9-0.1-1.8-0.2-2.7-0.1
				c-0.9,1-1.8,2.2-2.7,3.4c-0.9,1.2-1.6,2.5-2.2,3.9s-1.1,2.8-1.4,4.3C450,141,449.9,142.6,450.1,144.1z"/>
			<path class="img-type-st3" d="M492.5,118.1c-0.8,0.1-1.8,0.5-3,1.2s-2.4,1.6-3.5,2.7s-2.1,2.4-3,3.9s-1.4,3.1-1.6,4.8
				c0,1.2,0.2,1.9,0.7,2.2c0.7,0.4,1.6,0.2,2.7-0.5c1.3-0.8,2.5-1.8,3.6-3.1s2.2-2.6,3.3-3.9c1-1.3,2-2.6,2.9-3.8
				c0.9-1.2,1.8-2.1,2.6-2.8c0.3-0.2,0.7-0.3,1.2-0.2c0.5,0.1,1,0.4,1.5,0.7c0.5,0.4,0.9,0.8,1.3,1.3s0.6,1.1,0.6,1.6
				c0.1,7,0.1,13.8,0,20.3c-0.1,6.6-0.5,13.4-1.2,20.4c-0.1,0.7-0.4,1.3-0.9,1.7s-1,0.5-1.5,0.4c-2.1-0.3-3.1-1.4-3.1-3.1
				c0.3-5.4,0.6-10.8,0.8-16.2c0.2-5.4,0.2-11,0-16.8c-0.7,1-1.5,2.2-2.5,3.4s-2,2.4-3.2,3.5c-1.1,1.1-2.4,2-3.7,2.7
				c-1.3,0.7-2.6,1-4,1c-2.4,0-4.1-0.6-5.2-1.9c-1.1-1.3-1.7-2.9-1.8-4.8c-0.1-1.6,0-3.2,0.4-4.8c0.4-1.6,1-3.1,1.8-4.6
				s1.7-2.8,2.8-4c1.1-1.2,2.3-2.3,3.5-3.2c2-1.4,4-2.4,6-2.8c2-0.5,3.7,0,5.1,1.4c0.3,0.4,0.5,0.9,0.5,1.7c0,0.8-0.1,1.3-0.2,1.7
				c-0.4,0.4-1,0.6-1.6,0.6C493.2,118.5,492.8,118.4,492.5,118.1z"/>
		</g>
		<g>
			<path class="img-type-st3" d="M412.5,184.5c0,0.5,0.1,1.1,0.2,1.9c0.1,0.8,0.2,1.5,0.3,2.4c0.1,0.8,0.2,1.6,0.3,2.4
				c0.1,0.8,0.2,1.5,0.3,2.2c0.4-0.7,0.8-1.6,1.3-2.6s1-2,1.6-2.9s1.1-1.8,1.7-2.4c0.6-0.7,1.1-1,1.6-1s1,0.3,1.4,0.8
				s0.8,1.1,1.1,1.8c0.3,0.7,0.6,1.4,0.8,2.3c0.2,0.8,0.4,1.5,0.6,2.1c0.1-0.4,0.3-0.9,0.5-1.4s0.4-1.1,0.7-1.6
				c0.2-0.6,0.5-1.1,0.8-1.7c0.3-0.5,0.6-1,1-1.4s0.9-0.8,1.3-1c0.5-0.2,0.8-0.3,1-0.3c0.3,0,0.6,0.1,1,0.3s0.8,0.4,1.2,0.7
				c0.4,0.3,0.8,0.6,1.2,1c0.4,0.4,0.7,0.8,0.9,1.2c0.4,0.9,0.8,1.8,1.1,2.8c0.3,1,0.5,2,0.6,2.9s0.2,1.8,0.3,2.5
				c0.1,0.7,0.1,1.2,0.1,1.5c0,0.4-0.1,0.7-0.2,0.9s-0.3,0.4-0.5,0.5c-0.4,0.2-0.7,0.2-0.9,0.2c-0.3-0.1-0.5-0.2-0.6-0.3
				c-0.2-0.2-0.3-0.4-0.4-0.6c-0.1-0.2-0.2-0.4-0.2-0.5c-0.1-0.7-0.2-1.5-0.3-2.3c-0.1-0.8-0.2-1.5-0.4-2.2c-0.1-0.7-0.3-1.4-0.5-2
				s-0.4-1.2-0.5-1.7c-0.1-0.1-0.2-0.3-0.3-0.5c-0.1-0.2-0.3-0.4-0.5-0.6c-0.2-0.2-0.3-0.4-0.5-0.5s-0.3-0.2-0.3-0.2
				c-0.3,0-0.7,0.3-1,0.9c-0.4,0.6-0.7,1.3-1,2.1s-0.6,1.7-0.9,2.6c-0.3,0.9-0.5,1.7-0.6,2.3c0,0.8-0.2,1.4-0.5,1.8
				c-0.3,0.4-0.6,0.6-1,0.6s-0.7-0.1-1.1-0.4c-0.4-0.3-0.7-0.6-0.8-0.9c-0.2-0.5-0.4-1.1-0.6-1.7c-0.2-0.6-0.5-1.3-0.7-2
				s-0.5-1.3-0.7-2c-0.2-0.6-0.5-1.2-0.7-1.7c-0.4,0.6-0.9,1.3-1.3,2s-0.8,1.5-1.3,2.3c-0.4,0.8-0.8,1.5-1.1,2.3
				c-0.4,0.8-0.7,1.4-1,2c-0.2,0.4-0.5,0.7-0.7,0.9c-0.3,0.3-0.6,0.4-0.9,0.4s-0.5-0.1-0.8-0.4c-0.3-0.2-0.6-0.5-0.8-0.9
				c-0.3-0.4-0.5-0.8-0.7-1.2s-0.4-0.9-0.5-1.3c-0.3-1.4-0.5-2.9-0.6-4.5c-0.2-1.6-0.3-3.3-0.5-4.8c0-0.5,0-1,0.2-1.5s0.5-0.8,1-0.9
				c0.5-0.1,1,0,1.2,0.2C412.2,183.6,412.4,184,412.5,184.5z"/>
			<path class="img-type-st3" d="M447.7,180.5c-0.1,0.3-0.3,0.5-0.7,0.5c-0.4,0-0.7,0-1,0c-0.8,0-1.6,0.1-2.5,0.3c-0.8,0.1-1.7,0.3-2.7,0.6
				c-0.4,0.1-0.8,0.1-1.3-0.1c-0.4-0.2-0.7-0.7-0.8-1.4c0-0.2,0.1-0.5,0.3-0.6c0.2-0.2,0.4-0.3,0.7-0.4c0.4-0.2,0.9-0.4,1.5-0.5
				s1.2-0.3,1.8-0.3c0.6-0.1,1.2-0.1,1.7-0.1c0.6,0,1,0.1,1.4,0.2c0.5,0.2,0.9,0.4,1.2,0.7C447.7,179.6,447.8,180,447.7,180.5z
				 M446.6,196.4c0.2,0.5,0.3,1.1,0.4,1.7c0,0.6-0.1,1-0.5,1.2c-0.4,0.3-0.9,0.3-1.4,0s-0.9-0.8-1.2-1.3c-0.4-0.7-0.6-1.5-0.8-2.5
				c-0.2-1-0.3-1.9-0.4-2.9s-0.2-1.9-0.2-2.7s0-1.5,0-1.9s0.2-0.9,0.4-1.3c0.2-0.4,0.5-0.6,0.9-0.7c0.6,0,1,0.3,1.4,0.8
				s0.5,1.1,0.5,1.8c0,0.6,0,1.2,0,1.9s0.1,1.4,0.2,2.1c0.1,0.7,0.2,1.4,0.3,2C446.3,195.5,446.4,196,446.6,196.4z"/>
			<path class="img-type-st3" d="M455.4,177.6c0.2,3.5,0.4,7.1,0.8,10.8s0.8,7.3,1.3,10.7c0.1,1.4-0.3,2.1-1.2,2.2c-0.2,0-0.4-0.1-0.6-0.2
				c-0.2-0.1-0.4-0.3-0.5-0.5c-0.2-0.2-0.3-0.5-0.5-0.7c-0.1-0.3-0.2-0.5-0.3-0.7c-0.3-1.6-0.5-3.4-0.7-5.2s-0.4-3.7-0.6-5.5
				s-0.3-3.6-0.5-5.4c-0.1-1.8-0.2-3.4-0.2-4.8c0.1-0.8,0.2-1.4,0.3-1.9c0.2-0.5,0.5-0.8,1-0.8s0.9,0.3,1.2,0.7
				C455.2,176.5,455.4,177,455.4,177.6z"/>
			<path class="img-type-st3" d="M465.5,177.6c0.2,3.5,0.4,7.1,0.8,10.8s0.8,7.3,1.3,10.7c0.1,1.4-0.3,2.1-1.2,2.2c-0.2,0-0.4-0.1-0.6-0.2
				c-0.2-0.1-0.4-0.3-0.5-0.5c-0.2-0.2-0.3-0.5-0.5-0.7c-0.1-0.3-0.2-0.5-0.3-0.7c-0.3-1.6-0.5-3.4-0.7-5.2s-0.4-3.7-0.6-5.5
				s-0.3-3.6-0.5-5.4c-0.1-1.8-0.2-3.4-0.2-4.8c0.1-0.8,0.2-1.4,0.3-1.9c0.2-0.5,0.5-0.8,1-0.8s0.9,0.3,1.2,0.7
				C465.3,176.5,465.5,177,465.5,177.6z"/>
			<path class="img-type-st3" d="M479.7,180.5c-0.1,0.3-0.3,0.5-0.7,0.5c-0.4,0-0.7,0-1,0c-0.8,0-1.6,0.1-2.5,0.3c-0.8,0.1-1.7,0.3-2.7,0.6
				c-0.4,0.1-0.8,0.1-1.3-0.1c-0.4-0.2-0.7-0.7-0.8-1.4c0-0.2,0.1-0.5,0.3-0.6c0.2-0.2,0.4-0.3,0.7-0.4c0.4-0.2,0.9-0.4,1.5-0.5
				s1.2-0.3,1.8-0.3c0.6-0.1,1.2-0.1,1.7-0.1s1,0.1,1.4,0.2c0.5,0.2,0.9,0.4,1.2,0.7C479.6,179.6,479.7,180,479.7,180.5z
				 M478.6,196.4c0.2,0.5,0.3,1.1,0.4,1.7c0,0.6-0.1,1-0.5,1.2c-0.4,0.3-0.9,0.3-1.4,0s-0.9-0.8-1.2-1.3c-0.4-0.7-0.6-1.5-0.8-2.5
				c-0.2-1-0.3-1.9-0.4-2.9s-0.2-1.9-0.2-2.7s0-1.5,0-1.9s0.2-0.9,0.4-1.3c0.2-0.4,0.5-0.6,0.9-0.7c0.6,0,1,0.3,1.4,0.8
				s0.5,1.1,0.5,1.8c0,0.6,0,1.2,0,1.9s0.1,1.4,0.2,2.1c0.1,0.7,0.2,1.4,0.3,2C478.2,195.5,478.4,196,478.6,196.4z"/>
			<path class="img-type-st3" d="M494.4,183.3c1,0.4,1.8,0.9,2.4,1.6c0.7,0.7,1.2,1.5,1.5,2.4c0.4,0.9,0.6,1.8,0.6,2.7
				c0.1,0.9-0.1,1.8-0.3,2.6c-0.4,0.9-0.8,1.8-1.3,2.6c-0.5,0.9-1.2,1.6-1.9,2.3c-0.7,0.7-1.5,1.2-2.4,1.6c-0.9,0.4-1.9,0.6-3,0.6
				c-1.3,0-2.4-0.3-3.3-0.9c-0.9-0.6-1.6-1.4-2.1-2.4s-0.8-2-1-3.3c-0.1-1.2-0.1-2.4,0.1-3.7c0.1-0.9,0.4-1.8,0.7-2.6
				c0.3-0.9,0.7-1.6,1.2-2.3s1-1.2,1.7-1.6c0.6-0.4,1.3-0.6,2.1-0.6c0.4,0,1,0.1,1.7,0.3s1.3,0.4,1.9,0.7
				C493.2,183.1,493.7,183,494.4,183.3z M492.5,186.8c-0.4-0.2-0.8-0.5-1.2-0.9c-0.5-0.4-0.9-0.6-1.2-0.6c-0.4,0-0.8,0.2-1.1,0.5
				c-0.4,0.4-0.7,0.8-1,1.2c-0.3,0.5-0.5,0.9-0.7,1.4s-0.3,0.9-0.4,1.1c-0.1,0.5-0.2,1.1-0.2,1.8s0,1.3,0.1,2s0.4,1.3,0.8,1.8
				s0.9,0.9,1.7,1.1c0.4,0.1,1,0.1,1.6,0s1.2-0.4,1.8-0.8c0.6-0.4,1.2-0.9,1.7-1.5s0.9-1.4,1.2-2.2c0.3-0.9,0.3-1.9,0-2.9
				s-0.9-1.7-1.8-2.2c-0.2,0.2-0.5,0.2-0.7,0.2C492.8,186.9,492.6,186.8,492.5,186.8z"/>
			<path class="img-type-st3" d="M505.9,184.2c0.1,0.5,0.2,1,0.3,1.6c0.1,0.6,0.2,1.2,0.4,1.8c0.1,0.6,0.3,1.3,0.3,1.9
				c0.1,0.6,0.2,1.2,0.2,1.8c0.4-0.8,0.8-1.7,1.3-2.6c0.4-0.9,0.9-1.8,1.5-2.6c0.5-0.8,1.1-1.4,1.7-2c0.6-0.5,1.2-0.8,2-0.8
				c1.1,0,1.9,0.4,2.7,1.2c0.7,0.8,1.3,1.7,1.8,2.9c0.5,1.1,0.9,2.3,1.2,3.6c0.3,1.2,0.5,2.3,0.7,3.3c0.2,0.9-0.2,1.5-1.2,1.9
				c-0.4,0.2-0.8,0.3-1,0.1s-0.3-0.3-0.4-0.5c-0.2-0.4-0.4-1.1-0.6-2c-0.2-1-0.5-1.9-0.8-2.9s-0.6-1.9-1-2.6c-0.4-0.7-0.8-1.1-1.3-1
				c-0.6,0-1.1,0.5-1.5,1.3c-0.4,0.7-0.8,1.4-1.2,2.2c-0.4,0.8-0.8,1.6-1.2,2.5c-0.4,0.8-0.8,1.7-1.1,2.5c-0.4,0.8-0.7,1.6-1,2.3
				c-0.2,0.2-0.5,0.4-0.8,0.5s-0.7,0-1-0.1s-0.6-0.3-0.8-0.5c-0.2-0.2-0.3-0.5-0.3-0.7c-0.3-2.5-0.6-4.8-0.9-6.8
				c-0.3-2.1-0.7-4.1-1.2-6.3c-0.2-0.7-0.3-1.3-0.1-1.7c0.1-0.4,0.6-0.6,1.4-0.5C505,182.3,505.7,183,505.9,184.2z"/>
		</g>
	</g>
</g>
<g id="img-type-r-info">
	<g id="img-type-r4">
		<g>
			<g>
				<path class="img-type-st4" d="M835.2,261.5l17.8,22.9l1.2,31h4l-0.9-33.9l-18.6-22.6L835.2,261.5z"/>
			</g>
		</g>
		<path class="img-type-st5" d="M864.8,289.9c-5.3-6.6-10.5-13.3-15.8-19.9c-2.3-2.9-4.5-5.7-6.8-8.6c-1.5-1.8-2.5-4-5.1-3.1
			c-2.2,0.7-4.5,4.5-6,6.2c-2.4,2.6-4.9,5.3-7.4,7.9c-5.5,5.8-11,11.6-16.4,17.6c-0.8,0.9,0.5,2.2,1.3,1.3
			c4.6-5.2,9.4-10.2,14.2-15.2c2.2-2.3,4.3-4.6,6.5-6.9s4.3-5.4,6.8-7.4c3.4-2.6,4.9,1.3,7.1,4c2.2,2.7,4.3,5.5,6.5,8.2
			c4.6,5.8,9.1,11.6,13.7,17.3C864.2,292.2,865.5,290.8,864.8,289.9"/>
		<path class="img-type-st5" d="M816.6,281.9c0,12.7-0.6,25.3-0.2,38c0,1.2,1.9,1.2,1.9,0c-0.4-12.7,0.2-25.3,0.2-38
			C818.5,280.7,816.6,280.7,816.6,281.9"/>
		<path class="img-type-st5" d="M856.3,281.6c0.3,11.3,0.6,22.6,0.9,33.9c0,1.2,1.9,1.2,1.9,0c-0.3-11.3-0.6-22.6-0.9-33.9
			C858.2,280.4,856.3,280.4,856.3,281.6"/>
		<path class="img-type-st5" d="M844.1,290.9c0.1,4.6-0.3,9.1-0.2,13.7l0.9-0.9c-3.9-0.1-7.8,0.2-11.8,0.2c-0.4,0-1.7,0.2-2.1,0
			c-0.4-0.2-0.2-0.9-0.2-1.9c0-2.4-0.1-4.8-0.1-7.2c0-0.9-0.3-2.3-0.1-3.1c0,0.2-0.9,0.1,0.3,0c1.5-0.1,2.9-0.2,4.4-0.3
			c3-0.1,6.6-0.6,9.5,0.5c1.1,0.4,1.6-1.4,0.5-1.8c-2.9-1-6.4-0.7-9.3-0.6c-2,0.1-4.9-0.2-6.7,0.6c-0.3,0.1-0.5,0.5-0.5,0.8
			c0.1,3.6,0.1,7.1,0.2,10.7c0,1.6-0.5,3.4,1.1,4.1c1.6,0.6,4.2,0.1,5.8,0.1c3-0.1,6-0.2,9-0.1c0.5,0,0.9-0.4,0.9-0.9
			c-0.1-4.6,0.2-9.1,0.2-13.7C846,289.7,844.1,289.7,844.1,290.9"/>
		<path class="img-type-st5" d="M836.6,291.4c0,4.2,0,8.5,0,12.7c0,1.2,1.9,1.2,1.9,0c0-4.2,0-8.4,0-12.7
			C838.4,290.2,836.6,290.2,836.6,291.4"/>
		<path class="img-type-st5" d="M844.7,296.5c-4.9,0-9.7,0-14.6-0.1c-1.2,0-1.2,1.8,0,1.9c4.9,0.1,9.7,0.1,14.6,0.1
			C845.9,298.4,845.9,296.5,844.7,296.5"/>
	</g>
	<g id="img-type-r3">
		<path class="img-type-st1" d="M923.1,236.6c0.5,1.3,1.1,2.6,2,3.8c1.6,2.2,4.1,3.6,5.5,5.9c0.4,0.6,0.7,1.3,1.4,1.5
			c0.8-2.1,0.9-4.4,0.4-6.6c-0.5-1.9-1.5-3.7-3.3-4.6c-1.8-0.9-4-0.6-6-0.2"/>
		<path class="img-type-st1" d="M936.8,247.8c-0.1-0.8-1.1-1.2-1.8-0.9c-0.7,0.2-1.2,0.9-1.4,1.7c-0.2,0.7-0.1,1.5,0,2.3c0,0.2,0,0.4,0.1,0.5
			c0.3,0.4,0.9,0.2,1.2,0c1.4-0.9,1.9-3,1-4.5"/>
		<g>
			<g>
				<path class="img-type-st6" d="M915,278.7c-0.3,1.1-0.4,2.3-0.1,3.5c0.1,0.5,0.3,0.9,0.5,1.3c0.6,0.8,1.6,1.1,2.6,1.1s1.9-0.4,2.9-0.7
					c2.1-0.8,4.2-1.6,5.9-2.9c1.3-1,2.4-2.2,3.5-3.5c1.1-1.4,2.3-2.8,3.3-4.2c0.6-0.7,1.1-1.5,1.4-2.4c0.3-0.9,0.3-2,0.2-2.9
					c-0.2-1.4-0.6-2.8-1.2-4c-0.3-0.7-0.8-1.4-1.6-1.5c-0.7-0.1-1.3,0.4-1.8,1c-1.2,1.4-1.8,3.2-2.6,4.9c-1.1,2.4-2.4,4.6-4,6.7
					c-1,1.3-2.1,2.6-3.6,3.4s-3.3,1-4.8,0.2c-0.1-0.1-0.3-0.2-0.4-0.1c-0.2,0-0.3,0.2-0.2,0.3"/>
			</g>
		</g>
		<g>
			<g>
				<path class="img-type-st6" d="M922.6,285.1c-0.4,8.2-0.7,16.4-1.1,24.6c0,0.3,0,0.7,0.1,1c0.2,0.3,0.5,0.5,0.8,0.7
					c8.2,4.3,18.2,3.5,26.9,0.5c0.3-0.1,0.6-0.2,0.8-0.5s0.2-0.6,0.2-0.9c0.3-5.7,0.7-11.5,0.2-17.2c-0.4-4.4-1.3-8.6-2.1-12.9
					c-0.8-3.8-1.6-7.7-3.3-11.2c-1.1-2.1-2.5-4-3.9-5.9c-2.1-2.8-4.5-5.8-7.9-6.4c-3.1-0.6-6.2,1-8.5,3.2c-2.3,2.1-4,4.8-6,7.2
					c-1.9,2.2-4.1,4.2-6.6,5.8c0.1,1.4,0.4,3.1,1.7,3.5s2.6-0.7,3.5-1.7l3.7-4.1c0.2,1.6,0.6,3.1,1,4.7c2.8-3.1,3.4-7.5,5.3-11.2
					c0.5-0.9,1.1-1.8,1.9-2.3c1.6-0.9,3.7-0.5,5.1,0.8c1.3,1.2,2,3.1,2.2,4.9c0.4,3.9-1.1,8-4.1,10.7c-2.4,2.2-5.4,3.3-8.2,4.9
					c-0.4,0.2-0.8,0.5-1.1,0.8c-1.1,1.2-0.9,3.1-0.6,4.7"/>
			</g>
		</g>
		<path class="img-type-st5" d="M932.7,244c-0.6,3.3-1.7,6.2-3.8,8.9c-1.9,2.5-5.4,6.8-9.5,2.1c-1.3-1.5-1.8-4.5-1.9-6.3
			c-0.2-3.9,0.7-9.2,4.4-11.3c4.9-2.8,11.2,1.3,10.7,6.9c-0.1,1.2,1.8,1.2,1.9,0c0.4-5.4-4.4-10.1-9.9-9.6c-6.2,0.6-8.9,7-9,12.6
			c-0.1,4.6,2.1,12.9,8.3,11.9c6.1-1,9.5-9.3,10.5-14.5C934.7,243.3,932.9,242.8,932.7,244"/>
		<path class="img-type-st7" d="M926.5,314.4l-0.5,15.1c-0.1,2.1-0.1,4.4,1.1,6.1c0.5,0.7,1.3,1.4,2.2,1.3c0.8,0,1.5-0.6,1.8-1.3
			c0.4-0.7,0.5-1.5,0.6-2.3c0.9-6.2,1.4-12.4,1.2-18.7"/>
		<path class="img-type-st7" d="M938.9,314.9c-0.3,6-0.6,11.9-0.8,17.9c-0.1,1.3,0.1,2.9,1.3,3.3c0.4,0.1,0.9,0.1,1.4-0.1
			c1.9-0.8,2.6-3.1,2.9-5.2c1-5.7,1.6-11.1,1-16.8"/>
		<path class="img-type-st7" d="M911.9,278.1c3.7,0,6.7-4.1,8-6c0.3-0.4,0.6-0.9,1.1-1.1c0.2,1.9,0.3,3.7,0.4,5.6"/>
		<path class="img-type-st7" d="M921.5,285c-0.3,7.8-0.8,16.3-1.7,24c-0.1,0.6-0.1,1.2,0.1,1.7c0.2,0.4,0.6,0.8,1,1.1
			c1.6,1.2,3.7,1.6,5.6,1.9c8,1.4,16.3,1.2,24-1.4c0.8-8.3,1-16.9-0.1-25.2c-1.1-8.3-3.6-16.5-8.2-23.5c-1.6-2.4-3.5-4.8-6-6.3
			c-2.5-1.5-5.7-2.1-8.4-1.1c-1.9,0.8-3.5,2.3-4.8,3.9c-2.4,2.9-4.3,6.1-7,8.8c-2,2-3.7,3.6-6.3,4.3"/>
		<path class="img-type-st7" d="M923.2,274.8c-1.3,1.4-2.7,2.6-4.5,3.1c-1.7,0.5-3.6,0.2-5.4,0.1c-1.8-0.1-3.8-0.1-5.3,0.9s-2.3,3.3-1.1,4.7
			c0.4,0.5,1.1,0.8,1.7,1.1c4.8,1.9,10.2,1,15-1c2.1-0.9,4.2-2,6-3.4c3.8-3.1,6.2-7.9,6.4-12.9c0.1-2.1-0.3-4.4-2-5.6
			c-1.2-1-3-1.1-4.4-0.4C927.5,262.5,926,271.8,923.2,274.8z"/>
		<path class="img-type-st5" d="M934.2,246.5c1-0.5,2,0.3,2.3,1.2c0.3,1,0,2.1-0.5,3c-0.7,1.2-2,1.4-2.5-0.1c-0.4-1.1,0.3-2.5,0.7-3.5
			c0.5-1.1-1.1-2-1.6-0.9c-0.9,2-1.8,4.5-0.1,6.4c1.4,1.5,3.5,1.3,4.7-0.3s1.8-4,0.8-5.8c-0.9-1.7-3-2.4-4.7-1.6
			C932.2,245.5,933.1,247.1,934.2,246.5"/>
		<path class="img-type-st5" d="M932.4,249c-2.5-4.8-8.4-7.1-9.7-12.7c-0.3-1.2-2.1-0.7-1.8,0.5c0.6,2.5,2.2,4.5,3.9,6.5c1.9,2.2,4.7,4,6,6.6
			C931.4,251,933,250.1,932.4,249"/>
		<path class="img-type-st5" d="M923.5,284.4v-0.1c0-1.2-1.9-1.2-1.9,0v0.1C921.6,285.6,923.5,285.6,923.5,284.4"/>
		<g>
			<g>
				<path class="img-type-st4" d="M907.3,328.7c-3.7,3.1-8.8,4.5-13.5,3.4c-4.8-1.1-8.8-4.6-11.2-9c-0.7-1.2-1.2-2.5-1.5-3.9
					c-0.3-1.3-0.3-2.7-0.2-4.1c0.4-4.3,2.2-8.5,5.3-11.5c0.4-0.4,0.8-0.7,1.2-1c-1.5,0.7-2.9,1.7-4.2,2.9c-3.4,3.2-5.4,7.7-5.7,12.4
					c-0.1,1.5-0.1,3,0.2,4.4c0.3,1.5,0.9,2.9,1.6,4.2c2.5,4.6,6.9,8.5,12,9.6c5,1.2,10.6-0.3,14.5-3.6c3.1-2.6,5.2-6.2,6.1-10.1
					C910.9,324.8,909.3,327,907.3,328.7"/>
			</g>
		</g>
		<g>
			<g>
				<path class="img-type-st4" d="M872.3,332.7c-1.1,0.9-2.7,1.4-4.1,1c-1.5-0.3-2.7-1.4-3.4-2.7c-0.2-0.4-0.4-0.8-0.5-1.2
					c-0.1-0.4-0.1-0.8-0.1-1.3c0.1-1.3,0.7-2.6,1.6-3.5c0.1-0.1,0.2-0.2,0.4-0.3c-0.5,0.2-0.9,0.5-1.3,0.9c-1,1-1.6,2.4-1.8,3.8
					c0,0.4,0,0.9,0.1,1.3s0.3,0.9,0.5,1.3c0.8,1.4,2.1,2.6,3.7,2.9c1.5,0.4,3.2-0.1,4.4-1.1c0.9-0.8,1.6-1.9,1.9-3.1
					C873.4,331.5,872.9,332.2,872.3,332.7"/>
			</g>
		</g>
		<path class="img-type-st5" d="M903.7,263c-1.5,3-3.6,5.5-6.3,7.4c-1.9,1.3-3.3,2.1-5.6,1.4c-1.9,0-2.6-1-2.3-3c0-0.7,0-1.4,0.1-2.2
			c0.3-4.1,1.1-7.3,4.9-9.5c1.9-1.1,3.7-2,6.1-0.8c3,1.5,4.3,5.4,2.1,8.2c-0.7,0.9,0.6,2.2,1.3,1.3c3.3-4.1,1.3-9.5-3.4-11.6
			c-4.5-2-10.7,2.6-12,6.9c-1.1,3.7-2.6,12.3,3,13.2c5.7,0.9,11.5-6.1,13.8-10.5C905.9,262.9,904.2,261.9,903.7,263"/>
		<path class="img-type-st5" d="M912.6,266c-7.7,11-11.3,24.1-10.6,37.5c0.1,1.2,1.9,1.2,1.9,0c-0.8-13.1,2.8-25.8,10.3-36.6
			C914.9,265.9,913.3,265,912.6,266"/>
		<path class="img-type-st5" d="M908,276.8c-0.7-2.4-1.2-6-3.1-7.8c-0.2-0.2-0.6-0.4-0.9-0.2c-3.2,1.3-7.5,4.2-10,6.7
			c-3.6,3.7-0.1,9.3-5.7,11.9c-6.5,3-18.7-1.3-18.7,9.2c0,1.2,1.9,1.2,1.9,0c0-9.9,16.6-3.8,21.3-9.3c2.8-3.3,0.2-7.7,3.7-11.4
			c0.7-0.8,5.3-4.3,6.3-4.2c2.7,0.1,2.8,3.6,3.4,5.7C906.5,278.4,908.3,277.9,908,276.8"/>
		<path class="img-type-st5" d="M902.4,294.9c-8.6,0.2-17.2,0.4-25.8,0.6c-4,0.1-9.4-0.2-9.6,5c0,1.2,1.8,1.2,1.9,0
			c0.2-4.7,14.2-3.3,17.3-3.4c5.4-0.1,10.8-0.2,16.3-0.4C903.6,296.7,903.6,294.9,902.4,294.9"/>
		<path class="img-type-st5" d="M905.1,303.6c-9.4-4.8-20.2-4.6-25.9,5.7c-5,9-2.2,19.7,6.5,25.3c8.5,5.5,20,2.2,25-6.4
			c5.1-8.6,2.8-20.6-6.7-25c-1.1-0.5-2,1.1-0.9,1.6c8.3,3.9,10.5,14,6.4,21.8c-4.4,8.2-14.9,11.6-22.8,6.5
			c-7.5-4.9-10.3-14-6.2-22.1c2-3.9,5.5-7.1,9.8-8.3c5.1-1.5,9.5,0.4,14,2.6C905.2,305.8,906.2,304.2,905.1,303.6"/>
		<path class="img-type-st5" d="M876.1,329.7c-0.6-3.7-3.1-7.6-7.4-7.4c-3.8,0.2-6.8,3.9-6.9,7.6c-0.1,3.7,2.7,7.1,6.6,7.2
			c4,0.1,6.5-3.6,7-7.2c0.2-1.2-1.6-1.7-1.8-0.5c-0.4,2.3-1.5,4.9-4,5.6c-3.4,0.9-6.1-2.2-5.9-5.4c0.2-2.6,2.6-5.5,5.4-5.5
			c3.3,0,4.8,3.3,5.2,6C874.5,331.4,876.3,330.9,876.1,329.7"/>
		<path class="img-type-st5" d="M887.4,300.9c-4.1,0.3-9-0.2-13,0.8c-2.9,0.7-4.3,2.6-6.2,4.9c-2.2,2.7-4.1,5.6-6,8.4
			c-1.8,2.8-4.3,8.4-7.3,9.7c-2.2,0.9-9-1.6-8.4,2.5c0.7,5.1,11.6,6,15.1,6.1c1.2,0,1.2-1.8,0-1.9c-3.3-0.1-7.7-0.6-10.6-2.4
			c-0.6-0.4-2.7-1.5-2.6-2.3c0,0.1,4.4,0,4.7,0c3.2-0.3,4.3-1.3,6.1-3.8c3-4.1,5.5-8.5,8.5-12.6s5.4-6.4,10.6-7.1
			c3-0.4,6.1-0.4,9.2-0.6C888.5,302.7,888.6,300.8,887.4,300.9"/>
		<path class="img-type-st5" d="M869.4,323.6c3.3-3.6,6.5-7.3,9.6-11.1c0.8-0.9-0.6-2.2-1.3-1.3c-3.1,3.8-6.3,7.5-9.6,11.1
			C867.2,323.1,868.5,324.5,869.4,323.6"/>
	</g>
	<g id="img-type-r2">
		<path class="img-type-st8" d="M623.1,356.6l0.5,2.1l0,0l0.5-2.2l3.4-9.6h1.7l-5.3,14.2h-0.7l-5.4-14.2h1.8L623.1,356.6z"/>
		<path class="img-type-st8" d="M629.2,356c0-1.7,0.4-3,1.1-3.9c0.7-0.9,1.8-1.3,3.3-1.3c0.7,0,1.4,0.1,2,0.4c0.6,0.2,1,0.6,1.4,1
			c0.4,0.5,0.6,1,0.8,1.7c0.2,0.6,0.3,1.4,0.3,2.2c0,1.7-0.4,3-1.1,3.9c-0.8,0.9-1.8,1.3-3.3,1.3c-0.8,0-1.4-0.1-2-0.4
			c-0.6-0.2-1-0.6-1.4-1.1s-0.6-1-0.8-1.7C629.3,357.5,629.2,356.8,629.2,356z M630.8,356c0,0.5,0,1,0.1,1.5s0.3,0.9,0.5,1.2
			c0.2,0.3,0.5,0.6,0.8,0.8c0.4,0.2,0.8,0.3,1.3,0.3c1.8,0,2.7-1.3,2.7-3.8c0-0.5-0.1-1-0.2-1.5c-0.1-0.5-0.3-0.9-0.5-1.2
			c-0.2-0.3-0.5-0.6-0.8-0.8c-0.3-0.2-0.8-0.3-1.3-0.3C631.7,352.1,630.8,353.4,630.8,356z"/>
		<path class="img-type-st8" d="M642.4,358.5c0,0.5,0.1,0.8,0.2,1c0.2,0.2,0.4,0.3,0.7,0.3c0.2,0,0.4,0,0.6,0c0.2,0,0.4-0.1,0.7-0.2l0.2,1.3
			c-0.2,0.1-0.5,0.2-0.9,0.3c-0.4,0.1-0.7,0.1-1,0.1c-0.6,0-1.1-0.2-1.5-0.5s-0.6-0.9-0.6-1.7v-12h1.6V358.5z"/>
		<path class="img-type-st8" d="M648.1,351v5.7c0,0.5,0,1,0.1,1.4s0.2,0.7,0.3,1s0.3,0.5,0.6,0.6s0.6,0.2,1,0.2s0.7-0.1,1-0.2
			s0.5-0.3,0.8-0.5c0.2-0.2,0.4-0.4,0.6-0.7c0.2-0.3,0.3-0.5,0.4-0.8V351h1.6v7.2c0,0.5,0,1,0,1.5s0.1,1,0.2,1.3h-1.1l-0.4-1.6h-0.1
			c-0.3,0.5-0.7,1-1.2,1.3s-1.2,0.5-2,0.5c-0.5,0-1-0.1-1.4-0.2s-0.8-0.3-1-0.7c-0.3-0.3-0.5-0.8-0.6-1.3s-0.2-1.2-0.2-2v-6
			L648.1,351L648.1,351z"/>
		<path class="img-type-st8" d="M664,361v-5.7c0-1-0.2-1.8-0.5-2.3s-0.8-0.8-1.6-0.8c-0.7,0-1.3,0.2-1.8,0.6s-0.8,0.9-1,1.4v6.8h-1.6v-10h1.1
			l0.3,1.2h0.1c0.3-0.4,0.7-0.8,1.3-1c0.5-0.3,1.2-0.4,1.9-0.4c0.5,0,1,0.1,1.4,0.2s0.8,0.4,1,0.7c0.3,0.3,0.5,0.7,0.6,1.3
			c0.1,0.5,0.2,1.2,0.2,2v6L664,361L664,361z"/>
		<path class="img-type-st8" d="M667.5,351h1.6v-2l1.6-0.5v2.4h2.7v1.4h-2.7v5.5c0,0.7,0.1,1.2,0.3,1.5s0.5,0.4,0.9,0.4s0.6,0,0.9-0.1
			c0.2-0.1,0.5-0.2,0.8-0.3l0.4,1.2c-0.4,0.2-0.8,0.3-1.2,0.4s-0.9,0.2-1.4,0.2c-0.8,0-1.4-0.2-1.7-0.7s-0.5-1.2-0.5-2.3v-5.8h-1.6
			L667.5,351L667.5,351z"/>
		<path class="img-type-st8" d="M682.8,360.2c-0.4,0.3-0.9,0.6-1.5,0.8c-0.6,0.2-1.2,0.3-1.9,0.3c-0.8,0-1.4-0.1-2-0.4
			c-0.6-0.2-1-0.6-1.4-1.1s-0.6-1-0.8-1.6s-0.3-1.4-0.3-2.2c0-1.7,0.4-3,1.1-3.9c0.8-0.9,1.8-1.3,3.3-1.3c0.5,0,0.9,0.1,1.4,0.2
			s0.9,0.3,1.2,0.6c0.4,0.3,0.7,0.7,0.9,1.2s0.3,1.2,0.3,2c0,0.4,0,0.9-0.1,1.5h-6.4c0,0.6,0.1,1.1,0.2,1.6c0.1,0.4,0.3,0.8,0.6,1.1
			c0.3,0.3,0.6,0.6,1,0.7c0.4,0.2,0.9,0.3,1.5,0.3c0.5,0,0.9-0.1,1.4-0.2c0.5-0.2,0.8-0.4,1-0.6L682.8,360.2z M679.3,352.2
			c-0.8,0-1.4,0.2-1.9,0.6s-0.8,1.1-0.8,2.1h5c0-1-0.2-1.7-0.6-2.1C680.6,352.4,680,352.2,679.3,352.2z"/>
		<path class="img-type-st8" d="M692.9,360.2c-0.4,0.3-0.9,0.6-1.5,0.8c-0.6,0.2-1.2,0.3-1.9,0.3c-0.8,0-1.4-0.1-2-0.4
			c-0.6-0.2-1-0.6-1.4-1.1s-0.6-1-0.8-1.6s-0.3-1.4-0.3-2.2c0-1.7,0.4-3,1.1-3.9c0.8-0.9,1.8-1.3,3.3-1.3c0.5,0,0.9,0.1,1.4,0.2
			s0.9,0.3,1.2,0.6c0.4,0.3,0.7,0.7,0.9,1.2s0.3,1.2,0.3,2c0,0.4,0,0.9-0.1,1.5h-6.4c0,0.6,0.1,1.1,0.2,1.6c0.1,0.4,0.3,0.8,0.6,1.1
			c0.3,0.3,0.6,0.6,1,0.7c0.4,0.2,0.9,0.3,1.5,0.3c0.5,0,0.9-0.1,1.4-0.2c0.5-0.2,0.8-0.4,1-0.6L692.9,360.2z M689.5,352.2
			c-0.8,0-1.4,0.2-1.9,0.6s-0.8,1.1-0.8,2.1h5c0-1-0.2-1.7-0.6-2.1C690.7,352.4,690.2,352.2,689.5,352.2z"/>
		<path class="img-type-st8" d="M700.7,352.5c-0.4-0.1-0.8-0.2-1.1-0.2c-0.6,0-1,0.2-1.4,0.5c-0.3,0.3-0.5,0.7-0.6,1.2v7H696v-10h1.1l0.3,1.2
			h0.1c0.2-0.4,0.6-0.8,0.9-1c0.4-0.2,0.8-0.4,1.3-0.4c0.4,0,0.8,0.1,1.3,0.2L700.7,352.5z"/>
		<path class="img-type-st8" d="M703.2,351h1.6v10h-1.6V351z M702.9,347.9c0-0.3,0.1-0.6,0.3-0.8c0.2-0.2,0.5-0.3,0.8-0.3s0.6,0.1,0.8,0.3
			c0.2,0.2,0.3,0.5,0.3,0.8s-0.1,0.6-0.3,0.8c-0.2,0.2-0.5,0.3-0.8,0.3s-0.6-0.1-0.8-0.3S702.9,348.3,702.9,347.9z"/>
		<path class="img-type-st8" d="M714.8,361v-5.7c0-1-0.2-1.8-0.5-2.3s-0.8-0.8-1.6-0.8c-0.7,0-1.3,0.2-1.8,0.6s-0.8,0.9-1,1.4v6.8h-1.6v-10
			h1.1l0.3,1.2h0.1c0.3-0.4,0.7-0.8,1.3-1c0.5-0.3,1.2-0.4,1.9-0.4c0.5,0,1,0.1,1.4,0.2s0.8,0.4,1,0.7c0.3,0.3,0.5,0.7,0.6,1.3
			c0.1,0.5,0.2,1.2,0.2,2v6L714.8,361L714.8,361z"/>
		<path class="img-type-st8" d="M727.2,361.4c0,1.3-0.3,2.3-1,2.9s-1.7,0.9-3,0.9c-0.8,0-1.4-0.1-1.9-0.2s-0.9-0.2-1.3-0.4l0.4-1.4
			c0.3,0.1,0.6,0.2,1,0.3c0.4,0.1,0.9,0.2,1.5,0.2s1-0.1,1.4-0.2s0.6-0.3,0.8-0.5s0.4-0.5,0.5-0.9s0.1-0.8,0.1-1.3v-1h-0.1
			c-0.3,0.4-0.6,0.7-1,0.9c-0.4,0.2-0.9,0.3-1.6,0.3c-1.4,0-2.4-0.4-3-1.3c-0.6-0.8-0.9-2.1-0.9-3.9c0-1.7,0.4-3,1.2-3.9
			s2-1.3,3.6-1.3c0.8,0,1.4,0.1,2,0.2c0.5,0.1,1,0.3,1.5,0.4v10.2H727.2z M723.2,359.8c0.7,0,1.2-0.2,1.6-0.5
			c0.4-0.3,0.7-0.9,0.8-1.6v-5.1c-0.5-0.2-1.2-0.4-2-0.4c-0.9,0-1.6,0.3-2.1,0.9s-0.8,1.6-0.8,2.9c0,0.6,0,1.1,0.1,1.5
			c0.1,0.5,0.2,0.9,0.4,1.2c0.2,0.3,0.5,0.6,0.8,0.8C722.3,359.7,722.7,359.8,723.2,359.8z"/>
		<path class="img-type-st8" d="M743.6,357.6c0,0.7,0,1.3,0,1.8c0,0.6,0.1,1.1,0.2,1.6h-1.1l-0.4-1.4h-0.1c-0.3,0.5-0.7,0.8-1.2,1.2
			c-0.5,0.3-1.1,0.5-1.8,0.5c-1.3,0-2.3-0.4-3-1.3c-0.6-0.8-1-2.2-1-3.9c0-1.7,0.4-3,1.2-3.9s1.9-1.3,3.3-1.3c0.5,0,0.9,0,1.2,0.1
			s0.6,0.1,0.9,0.3V347h1.6v10.6H743.6z M739.6,359.8c0.7,0,1.2-0.2,1.6-0.5c0.4-0.4,0.7-0.9,0.8-1.6v-5c-0.2-0.2-0.5-0.3-0.8-0.4
			s-0.7-0.1-1.2-0.1c-0.9,0-1.6,0.3-2.2,0.9c-0.5,0.6-0.8,1.6-0.8,2.9c0,0.5,0,1.1,0.1,1.5c0.1,0.5,0.2,0.9,0.4,1.2
			c0.2,0.3,0.5,0.6,0.8,0.8C738.7,359.7,739.1,359.8,739.6,359.8z"/>
		<path class="img-type-st8" d="M747.3,351h1.6v10h-1.6V351z M746.9,347.9c0-0.3,0.1-0.6,0.3-0.8c0.2-0.2,0.5-0.3,0.8-0.3s0.6,0.1,0.8,0.3
			c0.2,0.2,0.3,0.5,0.3,0.8s-0.1,0.6-0.3,0.8c-0.2,0.2-0.5,0.3-0.8,0.3s-0.6-0.1-0.8-0.3S746.9,348.3,746.9,347.9z"/>
		<path class="img-type-st8" d="M757.1,352.5c-0.4-0.1-0.8-0.2-1.1-0.2c-0.6,0-1,0.2-1.4,0.5c-0.3,0.3-0.5,0.7-0.6,1.2v7h-1.6v-10h1.1
			l0.3,1.2h0.1c0.2-0.4,0.6-0.8,0.9-1c0.4-0.2,0.8-0.4,1.3-0.4c0.4,0,0.8,0.1,1.3,0.2L757.1,352.5z"/>
		<path class="img-type-st8" d="M766.6,360.2c-0.4,0.3-0.9,0.6-1.5,0.8c-0.6,0.2-1.2,0.3-1.9,0.3c-0.8,0-1.4-0.1-2-0.4
			c-0.6-0.2-1-0.6-1.4-1.1s-0.6-1-0.8-1.6s-0.3-1.4-0.3-2.2c0-1.7,0.4-3,1.1-3.9c0.8-0.9,1.8-1.3,3.3-1.3c0.5,0,0.9,0.1,1.4,0.2
			s0.9,0.3,1.2,0.6c0.4,0.3,0.7,0.7,0.9,1.2s0.3,1.2,0.3,2c0,0.4,0,0.9-0.1,1.5h-6.4c0,0.6,0.1,1.1,0.2,1.6c0.1,0.4,0.3,0.8,0.6,1.1
			c0.3,0.3,0.6,0.6,1,0.7c0.4,0.2,0.9,0.3,1.5,0.3c0.5,0,0.9-0.1,1.4-0.2c0.5-0.2,0.8-0.4,1-0.6L766.6,360.2z M763.2,352.2
			c-0.8,0-1.4,0.2-1.9,0.6s-0.8,1.1-0.8,2.1h5c0-1-0.2-1.7-0.6-2.1C764.4,352.4,763.9,352.2,763.2,352.2z"/>
		<path class="img-type-st8" d="M776.3,360.3c-0.4,0.3-0.9,0.5-1.4,0.7s-1.1,0.2-1.7,0.2c-0.8,0-1.4-0.1-2-0.4c-0.5-0.2-1-0.6-1.3-1.1
			s-0.6-1-0.7-1.7c-0.1-0.6-0.2-1.4-0.2-2.2c0-1.7,0.4-3,1.1-3.9c0.7-0.9,1.8-1.3,3.2-1.3c0.6,0,1.2,0.1,1.6,0.2
			c0.4,0.1,0.8,0.2,1.2,0.4l-0.5,1.4c-0.3-0.2-0.7-0.3-1-0.4c-0.4-0.1-0.8-0.2-1.2-0.2c-1.9,0-2.8,1.3-2.8,3.8c0,0.5,0,1,0.1,1.5
			s0.3,0.9,0.5,1.2c0.2,0.4,0.5,0.6,0.9,0.9c0.4,0.2,0.9,0.3,1.4,0.3s0.9-0.1,1.3-0.2c0.4-0.1,0.7-0.3,0.9-0.5L776.3,360.3z"/>
		<path class="img-type-st8" d="M777.3,351h1.6v-2l1.6-0.5v2.4h2.7v1.4h-2.7v5.5c0,0.7,0.1,1.2,0.3,1.5s0.5,0.4,0.9,0.4s0.6,0,0.9-0.1
			c0.2-0.1,0.5-0.2,0.8-0.3l0.4,1.2c-0.4,0.2-0.8,0.3-1.2,0.4s-0.9,0.2-1.4,0.2c-0.8,0-1.4-0.2-1.7-0.7s-0.5-1.2-0.5-2.3v-5.8h-1.6
			L777.3,351L777.3,351z"/>
		<path class="img-type-st8" d="M787.4,358.5c0,0.5,0.1,0.8,0.2,1c0.2,0.2,0.4,0.3,0.7,0.3c0.2,0,0.4,0,0.6,0c0.2,0,0.4-0.1,0.7-0.2l0.2,1.3
			c-0.2,0.1-0.5,0.2-0.9,0.3c-0.4,0.1-0.7,0.1-1,0.1c-0.6,0-1.1-0.2-1.5-0.5s-0.6-0.9-0.6-1.7v-12h1.6V358.5z"/>
		<path class="img-type-st8" d="M794.5,357.5l0.6,1.9h0.1l0.4-2l1.9-6.5h1.6l-3,9c-0.2,0.6-0.5,1.3-0.7,1.9s-0.5,1.2-0.7,1.6
			c-0.3,0.5-0.6,0.9-0.9,1.1c-0.3,0.3-0.7,0.4-1.2,0.4s-0.9-0.1-1.2-0.2l0.3-1.4c0.2,0.1,0.3,0.1,0.5,0.1c0.4,0,0.7-0.2,1.1-0.6
			c0.4-0.4,0.6-1.1,0.9-2l-4-10h1.8L794.5,357.5z"/>
		<path class="img-type-st8" d="M812.2,351l2.3,5.8l0.5,1.9l0,0l0.4-2l1.8-5.8h1.5l-3.4,10.2h-0.8l-2.6-6.6l-0.4-1.6h-0.1l-0.4,1.7l-2.5,6.6
			h-0.8l-3.5-10.2h1.8l2,5.8l0.3,2l0,0l0.5-2l2.1-5.8H812.2z"/>
		<path class="img-type-st8" d="M821.1,351h1.6v10h-1.6V351z M820.8,347.9c0-0.3,0.1-0.6,0.3-0.8c0.2-0.2,0.5-0.3,0.8-0.3s0.6,0.1,0.8,0.3
			c0.2,0.2,0.3,0.5,0.3,0.8s-0.1,0.6-0.3,0.8c-0.2,0.2-0.5,0.3-0.8,0.3s-0.6-0.1-0.8-0.3C820.9,348.5,820.8,348.3,820.8,347.9z"/>
		<path class="img-type-st8" d="M824.9,351h1.6v-2l1.6-0.5v2.4h2.7v1.4h-2.7v5.5c0,0.7,0.1,1.2,0.3,1.5s0.5,0.4,0.9,0.4s0.6,0,0.9-0.1
			c0.2-0.1,0.5-0.2,0.8-0.3l0.4,1.2c-0.4,0.2-0.8,0.3-1.2,0.4s-0.9,0.2-1.4,0.2c-0.8,0-1.4-0.2-1.7-0.7s-0.5-1.2-0.5-2.3v-5.8H825
			L824.9,351L824.9,351z"/>
		<path class="img-type-st8" d="M839.5,361v-5.7c0-0.5,0-1-0.1-1.4s-0.2-0.7-0.3-1c-0.2-0.3-0.4-0.5-0.6-0.6c-0.3-0.1-0.6-0.2-1.1-0.2
			c-0.6,0-1.2,0.2-1.7,0.6s-0.8,0.9-1,1.6v6.7h-1.6v-14h1.6v5.1h0.1c0.3-0.4,0.8-0.7,1.3-1c0.5-0.2,1.1-0.4,1.8-0.4
			c0.6,0,1,0.1,1.5,0.2c0.4,0.1,0.8,0.4,1,0.7c0.3,0.3,0.5,0.7,0.6,1.3c0.1,0.5,0.2,1.2,0.2,2v6L839.5,361L839.5,361z"/>
		<path class="img-type-st8" d="M844.6,351h1.6v10h-1.6V351z M844.3,347.9c0-0.3,0.1-0.6,0.3-0.8c0.2-0.2,0.5-0.3,0.8-0.3s0.6,0.1,0.8,0.3
			c0.2,0.2,0.3,0.5,0.3,0.8s-0.1,0.6-0.3,0.8c-0.2,0.2-0.5,0.3-0.8,0.3s-0.6-0.1-0.8-0.3C844.4,348.5,844.3,348.3,844.3,347.9z"/>
		<path class="img-type-st8" d="M856.2,361v-5.7c0-1-0.2-1.8-0.5-2.3s-0.8-0.8-1.6-0.8c-0.7,0-1.3,0.2-1.8,0.6s-0.8,0.9-1,1.4v6.8h-1.6v-10
			h1.1l0.3,1.2h0.1c0.3-0.4,0.7-0.8,1.3-1c0.5-0.3,1.2-0.4,1.9-0.4c0.5,0,1,0.1,1.4,0.2s0.8,0.4,1,0.7c0.3,0.3,0.5,0.7,0.6,1.3
			c0.1,0.5,0.2,1.2,0.2,2v6L856.2,361L856.2,361z"/>
		<path class="img-type-st8" d="M873.2,360.3c-0.4,0.3-0.9,0.5-1.4,0.7s-1.1,0.2-1.7,0.2c-0.8,0-1.4-0.1-2-0.4c-0.5-0.2-1-0.6-1.3-1.1
			s-0.6-1-0.7-1.7c-0.1-0.6-0.2-1.4-0.2-2.2c0-1.7,0.4-3,1.1-3.9c0.7-0.9,1.8-1.3,3.2-1.3c0.6,0,1.2,0.1,1.6,0.2
			c0.4,0.1,0.8,0.2,1.2,0.4l-0.5,1.4c-0.3-0.2-0.7-0.3-1-0.4c-0.4-0.1-0.8-0.2-1.2-0.2c-1.9,0-2.8,1.3-2.8,3.8c0,0.5,0,1,0.1,1.5
			s0.3,0.9,0.5,1.2c0.2,0.4,0.5,0.6,0.9,0.9c0.4,0.2,0.9,0.3,1.4,0.3s0.9-0.1,1.3-0.2c0.4-0.1,0.7-0.3,0.9-0.5L873.2,360.3z"/>
		<path class="img-type-st8" d="M874.5,356c0-1.7,0.4-3,1.1-3.9c0.7-0.9,1.8-1.3,3.3-1.3c0.7,0,1.4,0.1,2,0.4c0.6,0.2,1,0.6,1.4,1
			c0.4,0.5,0.6,1,0.8,1.7c0.2,0.6,0.3,1.4,0.3,2.2c0,1.7-0.4,3-1.1,3.9c-0.8,0.9-1.8,1.3-3.3,1.3c-0.8,0-1.4-0.1-2-0.4
			c-0.6-0.2-1-0.6-1.4-1.1s-0.6-1-0.8-1.7C874.6,357.5,874.5,356.8,874.5,356z M876.2,356c0,0.5,0,1,0.1,1.5s0.3,0.9,0.5,1.2
			c0.2,0.3,0.5,0.6,0.8,0.8c0.4,0.2,0.8,0.3,1.3,0.3c1.8,0,2.7-1.3,2.7-3.8c0-0.5-0.1-1-0.2-1.5c-0.1-0.5-0.3-0.9-0.5-1.2
			c-0.2-0.3-0.5-0.6-0.8-0.8c-0.3-0.2-0.8-0.3-1.3-0.3C877.1,352.1,876.2,353.4,876.2,356z"/>
		<path class="img-type-st8" d="M891.9,361v-5.7c0-0.5,0-1-0.1-1.4c0-0.4-0.1-0.7-0.3-1c-0.1-0.3-0.3-0.5-0.6-0.6c-0.2-0.1-0.6-0.2-1-0.2
			c-0.6,0-1.1,0.2-1.5,0.6s-0.7,0.8-0.8,1.4v6.9H886v-10h1.1l0.3,1.2h0.1c0.4-0.4,0.8-0.8,1.2-1c0.5-0.3,1.1-0.4,1.9-0.4
			c0.6,0,1.2,0.1,1.6,0.4c0.4,0.2,0.7,0.7,1,1.3c0.3-0.5,0.7-0.9,1.3-1.2c0.5-0.3,1.2-0.4,1.8-0.4s1,0.1,1.4,0.2s0.7,0.4,1,0.7
			c0.2,0.3,0.4,0.7,0.5,1.3c0.1,0.5,0.2,1.2,0.2,2.1v6h-1.6v-6c0-0.5,0-0.9-0.1-1.3c0-0.4-0.1-0.6-0.3-0.9c-0.1-0.2-0.3-0.4-0.6-0.5
			s-0.6-0.2-1-0.2c-0.7,0-1.2,0.2-1.6,0.6c-0.4,0.4-0.6,0.9-0.8,1.6v6.7h-1.5V361z"/>
		<path class="img-type-st8" d="M908.5,361v-5.7c0-0.5,0-1-0.1-1.4c0-0.4-0.1-0.7-0.3-1c-0.1-0.3-0.3-0.5-0.6-0.6c-0.2-0.1-0.6-0.2-1-0.2
			c-0.6,0-1.1,0.2-1.5,0.6s-0.7,0.8-0.8,1.4v6.9h-1.6v-10h1.1l0.3,1.2h0.1c0.4-0.4,0.8-0.8,1.2-1c0.5-0.3,1.1-0.4,1.9-0.4
			c0.6,0,1.2,0.1,1.6,0.4c0.4,0.2,0.7,0.7,1,1.3c0.3-0.5,0.7-0.9,1.3-1.2c0.5-0.3,1.2-0.4,1.8-0.4c0.5,0,1,0.1,1.4,0.2
			s0.7,0.4,1,0.7c0.2,0.3,0.4,0.7,0.5,1.3c0.1,0.5,0.2,1.2,0.2,2.1v6h-1.6v-6c0-0.5,0-0.9-0.1-1.3c0-0.4-0.1-0.6-0.3-0.9
			c-0.1-0.2-0.3-0.4-0.6-0.5s-0.6-0.2-1-0.2c-0.7,0-1.2,0.2-1.6,0.6c-0.4,0.4-0.6,0.9-0.8,1.6v6.7h-1.5V361z"/>
		<path class="img-type-st8" d="M920.6,351v5.7c0,0.5,0,1,0.1,1.4s0.2,0.7,0.3,1s0.3,0.5,0.6,0.6s0.6,0.2,1,0.2s0.7-0.1,1-0.2
			s0.5-0.3,0.8-0.5c0.2-0.2,0.4-0.4,0.6-0.7c0.2-0.3,0.3-0.5,0.4-0.8V351h1.6v7.2c0,0.5,0,1,0,1.5s0.1,1,0.2,1.3H926l-0.4-1.6h-0.1
			c-0.3,0.5-0.7,1-1.2,1.3s-1.2,0.5-2,0.5c-0.5,0-1-0.1-1.4-0.2s-0.8-0.3-1-0.7c-0.3-0.3-0.5-0.8-0.6-1.3s-0.2-1.2-0.2-2v-6
			L920.6,351L920.6,351z"/>
		<path class="img-type-st8" d="M936.6,361v-5.7c0-1-0.2-1.8-0.5-2.3s-0.8-0.8-1.6-0.8c-0.7,0-1.3,0.2-1.8,0.6s-0.8,0.9-1,1.4v6.8h-1.6v-10
			h1.1l0.3,1.2h0.1c0.3-0.4,0.7-0.8,1.3-1c0.5-0.3,1.2-0.4,1.9-0.4c0.5,0,1,0.1,1.4,0.2s0.8,0.4,1,0.7c0.3,0.3,0.5,0.7,0.6,1.3
			c0.1,0.5,0.2,1.2,0.2,2v6L936.6,361L936.6,361z"/>
		<path class="img-type-st8" d="M941.7,351h1.6v10h-1.6V351z M941.3,347.9c0-0.3,0.1-0.6,0.3-0.8c0.2-0.2,0.5-0.3,0.8-0.3s0.6,0.1,0.8,0.3
			c0.2,0.2,0.3,0.5,0.3,0.8s-0.1,0.6-0.3,0.8c-0.2,0.2-0.5,0.3-0.8,0.3s-0.6-0.1-0.8-0.3C941.4,348.5,941.3,348.3,941.3,347.9z"/>
		<path class="img-type-st8" d="M945.5,351h1.6v-2l1.6-0.5v2.4h2.7v1.4h-2.7v5.5c0,0.7,0.1,1.2,0.3,1.5s0.5,0.4,0.9,0.4s0.6,0,0.9-0.1
			c0.2-0.1,0.5-0.2,0.8-0.3l0.4,1.2c-0.4,0.2-0.8,0.3-1.2,0.4s-0.9,0.2-1.4,0.2c-0.8,0-1.4-0.2-1.7-0.7s-0.5-1.2-0.5-2.3v-5.8h-1.6
			L945.5,351L945.5,351z"/>
		<path class="img-type-st8" d="M954,351h1.6v10H954V351z M953.7,347.9c0-0.3,0.1-0.6,0.3-0.8c0.2-0.2,0.5-0.3,0.8-0.3s0.6,0.1,0.8,0.3
			c0.2,0.2,0.3,0.5,0.3,0.8s-0.1,0.6-0.3,0.8c-0.2,0.2-0.5,0.3-0.8,0.3s-0.6-0.1-0.8-0.3S953.7,348.3,953.7,347.9z"/>
		<path class="img-type-st8" d="M966.5,360.2c-0.4,0.3-0.9,0.6-1.5,0.8c-0.6,0.2-1.2,0.3-1.9,0.3c-0.8,0-1.4-0.1-2-0.4
			c-0.6-0.2-1-0.6-1.4-1.1s-0.6-1-0.8-1.6s-0.3-1.4-0.3-2.2c0-1.7,0.4-3,1.1-3.9c0.8-0.9,1.8-1.3,3.3-1.3c0.5,0,0.9,0.1,1.4,0.2
			s0.9,0.3,1.2,0.6c0.4,0.3,0.7,0.7,0.9,1.2s0.3,1.2,0.3,2c0,0.4,0,0.9-0.1,1.5h-6.4c0,0.6,0.1,1.1,0.2,1.6c0.1,0.4,0.3,0.8,0.6,1.1
			c0.3,0.3,0.6,0.6,1,0.7c0.4,0.2,0.9,0.3,1.5,0.3c0.5,0,0.9-0.1,1.4-0.2c0.5-0.2,0.8-0.4,1-0.6L966.5,360.2z M963,352.2
			c-0.8,0-1.4,0.2-1.9,0.6s-0.8,1.1-0.8,2.1h5c0-1-0.2-1.7-0.6-2.1C964.3,352.4,963.7,352.2,963,352.2z"/>
		<path class="img-type-st8" d="M973.9,358.3c0-0.4-0.1-0.7-0.4-0.9c-0.2-0.2-0.5-0.4-0.9-0.6s-0.7-0.3-1.2-0.4c-0.4-0.1-0.8-0.3-1.2-0.5
			s-0.7-0.5-0.9-0.9c-0.2-0.3-0.4-0.8-0.4-1.4c0-1,0.3-1.7,0.8-2.1s1.3-0.7,2.3-0.7c0.7,0,1.3,0.1,1.8,0.2s0.9,0.3,1.3,0.5l-0.4,1.3
			c-0.3-0.1-0.7-0.3-1.1-0.4c-0.4-0.1-0.9-0.2-1.4-0.2c-0.6,0-1,0.1-1.3,0.3c-0.3,0.2-0.4,0.5-0.4,1c0,0.3,0.1,0.6,0.4,0.8
			c0.2,0.2,0.5,0.4,0.9,0.5c0.4,0.2,0.7,0.3,1.2,0.5c0.4,0.1,0.8,0.3,1.2,0.6c0.4,0.2,0.6,0.5,0.9,0.9c0.2,0.4,0.4,0.9,0.4,1.5
			c0,0.4-0.1,0.8-0.2,1.2c-0.1,0.4-0.4,0.7-0.7,1s-0.7,0.5-1.1,0.6c-0.4,0.2-0.9,0.2-1.5,0.2c-0.8,0-1.4-0.1-2-0.2
			c-0.5-0.1-1-0.3-1.3-0.5l0.5-1.4c0.3,0.2,0.7,0.3,1.2,0.5c0.5,0.1,1,0.2,1.5,0.2c0.6,0,1-0.1,1.4-0.3
			C973.7,359.3,973.9,358.9,973.9,358.3z"/>
	</g>
	<g id="img-type-r1">
		<g>
			<path class="img-type-st3" d="M672.9,246.4c-1.8,6.1-3.4,12.1-5,18.2c-1.6,6-3.1,11.7-4.5,17c-0.3,1.1-0.9,2-1.8,2.6
				c-0.9,0.6-1.7,0.8-2.4,0.5c-0.4-0.1-0.7-0.4-1-0.9s-0.5-1.1-0.7-1.8c-0.2-0.7-0.3-1.4-0.3-2.1s0-1.4,0-2.1
				c1.2-4.4,2.6-9.6,4.2-15.4c1.6-5.8,3.3-11.7,5.1-17.7c-1.7,0.1-3.5,0.3-5.3,0.5s-3.6,0.3-5.4,0.5c-1.8,0.1-3.4,0.3-5,0.4
				c-1.6,0.1-2.9,0.3-4,0.4c-1.2,0-2.3-0.6-3.3-1.7c-1-1.1-1.5-2.3-1.5-3.5c0-0.4,0.2-0.7,0.5-0.9c0.4-0.2,0.7-0.4,1.1-0.5
				c1.8-0.3,3.9-0.5,6.3-0.8c2.3-0.2,4.7-0.4,7.1-0.6c2.4-0.2,4.8-0.3,7-0.5c2.3-0.1,4.3-0.2,6.1-0.2c0.4,0,0.9,0.2,1.4,0.5
				s1,0.7,1.4,1.2s0.8,1,1.1,1.6s0.4,1.1,0.4,1.5L672.9,246.4z"/>
			<path class="img-type-st3" d="M710.8,249.2c0,1.6-0.3,3.6-0.8,6c-0.5,2.4-1.4,4.8-2.6,7.2c-1.2,2.4-2.8,4.7-4.7,6.8
				c-1.9,2.1-4.3,3.7-7.2,4.9c-1.8,0.8-3.5,1.2-5.3,1.2c-1.7,0-3.3-0.3-4.7-1s-2.5-1.8-3.5-3.2c-0.9-1.4-1.5-3.3-1.7-5.7
				c-0.2-2.8,0-5.5,0.7-8.3c0.7-2.8,1.7-5.4,3.2-7.8c1.4-2.4,3.2-4.6,5.3-6.5s4.3-3.4,6.9-4.6c0.6-0.3,1.1-0.3,1.6,0.1
				c0.5,0.3,0.9,1,1,2c3.7,0.4,6.5,1.3,8.6,2.9C709.7,244.6,710.8,246.7,710.8,249.2z M687.7,265.1c0.1,1,0.4,1.7,0.8,2.1
				c0.4,0.4,0.9,0.7,1.5,0.8c0.6,0.1,1.2,0,1.9-0.2s1.4-0.5,2.1-0.8c0.7-0.3,1.3-0.7,1.9-1.1c0.6-0.4,1-0.8,1.4-1.1
				c2-1.8,3.6-4.1,4.8-6.7c1.2-2.7,1.9-5.6,2.2-8.8c0-0.4-0.3-0.8-0.8-1.3c-0.6-0.4-1.3-0.8-2.2-1s-1.9-0.4-2.9-0.6
				c-1.1-0.1-2.1-0.2-3.1-0.1c-1.1,1.2-2.1,2.5-3.1,3.9s-1.8,2.9-2.5,4.5c-0.7,1.6-1.2,3.2-1.6,5
				C687.6,261.6,687.5,263.4,687.7,265.1z"/>
			<path class="img-type-st3" d="M735.9,243.1c-0.1,2.3-0.3,4.5-0.6,6.6c-0.3,2.2-0.9,4.2-1.6,6c-0.4,1-1,2-1.7,3.1s-1.5,2-2.5,2.9
				c-1,0.8-2,1.5-3.1,2s-2.3,0.5-3.5,0.2c-1.1-0.3-1.9-0.8-2.6-1.5c-0.7-0.7-1.2-1.6-1.6-2.5c-0.4-0.9-0.7-1.9-0.8-2.9
				s-0.1-1.9,0-2.8c0.1-1.5,0.5-3,1.2-4.6c0.6-1.6,1.4-3.1,2.4-4.6s2.1-2.9,3.4-4.1c1.3-1.2,2.6-2.2,4-3c0.8-0.4,1.6-0.6,2.4-0.8
				c0.9-0.2,1.6-0.1,2.2,0.2c0.4,0.2,0.6,0.6,0.6,1.2c0.1,0.6-0.1,1.1-0.6,1.5l-0.6,0.6h0.4c0.7,0.1,1.3,0.4,1.8,0.9
				C735.7,241.8,735.9,242.4,735.9,243.1z M759.3,233.4c-3.3,6.5-6.2,13.5-8.9,21c-2.7,7.5-5.2,14.9-7.5,22
				c-0.4,0.8-0.9,1.4-1.5,1.7c-0.7,0.3-1.3,0.3-1.8,0c-0.5-0.4-0.8-1-1.1-1.6c-0.2-0.7-0.4-1.4-0.4-2.2c-0.1-0.8-0.1-1.6,0-2.3
				c0.1-0.8,0.2-1.5,0.3-2c1.8-6.9,4.1-13.6,6.6-20.2c2.6-6.6,5.7-13.2,9.3-19.8c0.4-0.7,0.8-1.2,1.5-1.4c0.6-0.2,1.2-0.3,1.8,0
				c0.9,0.4,1.5,1,2,1.8C760,231.2,759.9,232.2,759.3,233.4z M774.3,256.8c1.4,2.7,2.1,5.1,2.1,7.1s-0.5,3.8-1.4,5.4
				s-2.1,2.9-3.5,3.9c-1.4,1.1-2.9,1.9-4.3,2.5c-3.4,1.5-6,1.7-7.8,0.5c-1.8-1.1-2.6-3.3-2.5-6.4c0.1-1.5,0.5-3.2,1.4-5
				c0.9-1.9,1.9-3.6,3.2-5.3c1.3-1.6,2.7-3,4.3-4.1c1.5-1.1,3-1.7,4.5-1.7c0.8,0,1.5,0.2,2.1,0.6C773,254.8,773.7,255.6,774.3,256.8
				z M763.1,270c0.1,0.4,0.4,0.5,1.1,0.3c0.6-0.1,1.4-0.5,2.2-1s1.6-1.1,2.4-1.9c0.8-0.7,1.3-1.6,1.7-2.5c0.1-0.2,0.1-0.6,0-1
				c-0.1-0.5-0.2-1-0.3-1.4c-0.1-0.5-0.3-0.9-0.5-1.3s-0.4-0.6-0.6-0.6c-0.7-0.1-1.4,0.3-2.2,1.1c-0.7,0.8-1.4,1.7-2,2.8
				c-0.6,1.1-1,2.2-1.4,3.2C763,268.8,762.9,269.6,763.1,270z M724.1,254.3c-0.1,0.5,0,1,0.2,1.5s0.5,0.7,1,0.7c1,0,1.8-0.6,2.4-1.9
				c0.6-1.3,1.1-2.5,1.4-3.7c0.3-1.1,0.5-2.2,0.6-3.3s0.2-2.4,0.4-3.8c-1.4,1.8-2.7,3.6-3.9,5.4
				C724.9,251.1,724.2,252.8,724.1,254.3z"/>
		</g>
		<g>
			<path class="img-type-st3" d="M638.2,299.4c-0.1,0.4-0.3,0.6-0.8,0.6c-0.4,0-0.8,0-1.1,0c-0.9,0-1.9,0.1-2.9,0.3c-1,0.1-2,0.4-3.1,0.7
				c-0.4,0.1-0.9,0.1-1.5-0.2c-0.5-0.3-0.8-0.8-0.9-1.6c0-0.3,0.1-0.5,0.3-0.7s0.5-0.4,0.8-0.5c0.5-0.2,1.1-0.4,1.7-0.6
				c0.7-0.2,1.4-0.3,2-0.4c0.7-0.1,1.4-0.1,2-0.1s1.2,0.1,1.6,0.2c0.6,0.2,1.1,0.5,1.4,0.8C638.1,298.4,638.2,298.9,638.2,299.4z
				 M636.9,318c0.3,0.6,0.4,1.3,0.4,1.9c0,0.7-0.2,1.2-0.6,1.4c-0.5,0.3-1.1,0.3-1.7,0c-0.6-0.4-1-0.9-1.3-1.5
				c-0.4-0.8-0.7-1.7-1-2.9c-0.2-1.1-0.4-2.3-0.5-3.4s-0.2-2.2-0.2-3.1c0-1,0-1.7,0-2.2s0.2-1,0.4-1.5c0.3-0.4,0.6-0.7,1-0.8
				c0.7,0,1.2,0.3,1.6,0.9c0.4,0.6,0.6,1.3,0.6,2.2c0,0.7,0,1.4,0,2.2c0,0.8,0.1,1.6,0.2,2.5c0.1,0.8,0.2,1.6,0.4,2.4
				C636.5,316.9,636.7,317.5,636.9,318z"/>
			<path class="img-type-st3" d="M645.9,303.7c0.1,0.6,0.2,1.2,0.4,1.9c0.1,0.7,0.3,1.4,0.4,2.1c0.2,0.7,0.3,1.5,0.4,2.2
				c0.1,0.8,0.2,1.5,0.3,2.1c0.4-1,0.9-2,1.5-3.1c0.5-1.1,1.1-2.1,1.7-3c0.6-0.9,1.3-1.7,2-2.3c0.7-0.6,1.5-0.9,2.3-0.9
				c1.2,0,2.3,0.4,3.1,1.3s1.6,2,2.1,3.3c0.6,1.3,1,2.7,1.4,4.2c0.3,1.5,0.6,2.8,0.8,3.9c0.2,1-0.2,1.7-1.3,2.2
				c-0.5,0.3-0.9,0.3-1.2,0.1c-0.3-0.2-0.4-0.4-0.5-0.6c-0.2-0.4-0.4-1.2-0.7-2.3c-0.3-1.1-0.6-2.3-0.9-3.4c-0.4-1.2-0.8-2.2-1.2-3
				c-0.4-0.9-1-1.3-1.5-1.2c-0.7,0-1.3,0.6-1.8,1.5c-0.5,0.8-0.9,1.7-1.4,2.6s-0.9,1.9-1.4,2.9s-0.9,2-1.3,3c-0.4,1-0.8,1.9-1.2,2.7
				c-0.3,0.3-0.6,0.4-1,0.5s-0.8,0.1-1.2-0.1c-0.4-0.1-0.7-0.3-0.9-0.5c-0.2-0.3-0.3-0.5-0.3-0.8c-0.3-2.9-0.7-5.6-1-7.9
				c-0.4-2.4-0.8-4.8-1.4-7.3c-0.3-0.9-0.3-1.5-0.1-2s0.7-0.7,1.7-0.6C644.8,301.5,645.6,302.3,645.9,303.7z"/>
			<path class="img-type-st3" d="M668.1,312c-0.5,0.1-1.1,0-1.8-0.2s-1.2-0.7-1.4-1.4c-0.1-0.4-0.1-0.7-0.1-1.1c0.1-0.4,0.5-0.6,1.2-0.8
				c0.7-0.1,1.4-0.3,2.2-0.4s1.5-0.3,2.3-0.4l-2.1-6.3c-0.6-2.4-0.7-4.5-0.2-6.2s1.9-2.9,4.1-3.7c0.9-0.3,1.9-0.4,2.8-0.3
				c0.9,0.1,1.8,0.3,2.6,0.7c0.8,0.4,1.6,0.9,2.2,1.6c0.7,0.7,1.2,1.4,1.6,2.3c0.1,0.4,0.2,0.8,0.2,1.1c0,0.3-0.1,0.6-0.4,0.9
				c-0.4,0.4-0.8,0.5-1.2,0.5c-0.4-0.1-0.8-0.2-0.9-0.4c-0.3-0.4-0.7-0.8-1.1-1.3c-0.4-0.4-0.8-0.8-1.2-1.1
				c-0.4-0.3-0.9-0.6-1.4-0.7c-0.5-0.2-1-0.2-1.6-0.1c-0.3,0-0.6,0.2-0.9,0.4c-0.4,0.2-0.7,0.6-0.9,1c-0.3,0.5-0.4,1.1-0.5,1.8
				c-0.1,0.8,0.1,1.7,0.4,2.8c0.3,0.9,0.6,1.9,0.9,3c0.3,1.1,0.7,2.2,1.1,3.4c1.8-0.2,3.4-0.2,4.9-0.2c0.8,0.1,1.6,0.2,2.3,0.5
				c0.7,0.2,1.3,0.6,1.7,1c0.1,0.4,0.1,0.7-0.1,0.9c-0.1,0.2-0.4,0.4-0.6,0.6c-0.3,0.2-0.6,0.3-0.9,0.4c-0.4,0.1-0.7,0.1-1,0.2
				c-0.7,0.1-1.5,0.2-2.3,0.3c-0.8,0.1-1.7,0.2-2.6,0.3c0.6,1.7,1.1,3.3,1.6,4.8s0.9,2.8,1.2,3.8c0.1,0.6,0.2,1.2,0,1.8
				c-0.1,0.6-0.3,1.3-0.4,1.8c-0.3,0.9-0.7,1.6-1.1,2.1c-0.4,0.5-0.9,0.7-1.5,0.5c-0.4-0.2-0.7-0.4-0.8-0.7c-0.1-0.3-0.1-0.7,0-1.2
				c0.1-0.6,0.1-1.2,0.1-1.8c0-0.6,0-1.2-0.1-1.7s-0.1-1-0.2-1.3c-0.1-0.4-0.2-0.7-0.2-0.8l-2.4-6.8c-0.6,0.1-1.2,0.1-1.8,0.2
				C669.4,311.9,668.7,312,668.1,312z"/>
			<path class="img-type-st3" d="M699.9,302.7c1.1,0.4,2.1,1,2.8,1.9c0.8,0.8,1.4,1.7,1.8,2.8c0.4,1,0.6,2.1,0.7,3.2c0.1,1.1-0.1,2.1-0.4,3
				c-0.4,1-0.9,2.1-1.6,3.1c-0.6,1-1.4,1.9-2.2,2.7c-0.8,0.8-1.7,1.4-2.8,1.9c-1,0.5-2.2,0.7-3.5,0.7c-1.5,0-2.8-0.4-3.9-1.1
				c-1-0.7-1.9-1.6-2.5-2.7s-1-2.4-1.1-3.8c-0.2-1.4-0.1-2.8,0.1-4.3c0.1-1.1,0.4-2.1,0.8-3.1c0.4-1,0.8-1.9,1.4-2.6
				c0.6-0.8,1.2-1.4,1.9-1.9s1.6-0.7,2.5-0.7c0.5,0,1.2,0.1,2,0.3c0.8,0.2,1.5,0.5,2.2,0.9C698.6,302.5,699.2,302.4,699.9,302.7z
				 M697.7,306.8c-0.4-0.3-0.9-0.6-1.4-1s-1-0.7-1.4-0.7c-0.5,0-0.9,0.2-1.3,0.6c-0.4,0.4-0.8,0.9-1.1,1.4s-0.6,1.1-0.8,1.7
				s-0.4,1-0.4,1.3c-0.1,0.6-0.2,1.2-0.2,2s0,1.6,0.2,2.3c0.1,0.8,0.4,1.4,0.9,2.1c0.4,0.6,1.1,1.1,1.9,1.3c0.5,0.2,1.1,0.2,1.9,0
				c0.7-0.2,1.4-0.5,2.1-0.9c0.7-0.4,1.3-1,2-1.8c0.6-0.7,1.1-1.6,1.4-2.6c0.4-1.1,0.4-2.2,0-3.4c-0.4-1.2-1.1-2-2.2-2.5
				c-0.3,0.2-0.5,0.3-0.8,0.3C698.1,306.9,697.9,306.8,697.7,306.8z"/>
			<path class="img-type-st3" d="M726.4,302.9c-0.7,0.4-1.4,0.8-2.1,1.2c-0.7,0.4-1.5,0.9-2.2,1.4s-1.4,1.2-2.1,1.9c-0.6,0.7-1.2,1.6-1.8,2.6
				c-0.8,1.4-1.3,2.9-1.5,4.3c-0.3,1.5-0.4,2.9-0.5,4.3c0,0.7-0.2,1.4-0.5,2c-0.3,0.7-0.8,1-1.3,1c-0.7,0-1.3-0.4-1.7-1.1
				s-0.7-1.4-0.9-2.1c-0.6-2.6-1.2-5.3-1.6-7.9c-0.4-2.6-0.8-5.2-1.1-7.8c0-0.5,0.2-0.9,0.5-1c0.3-0.2,0.7-0.2,1.1-0.2
				c0.4,0,0.9,0.1,1.3,0.3c0.4,0.2,0.7,0.5,0.7,0.9c0.2,1.4,0.3,2.8,0.6,4.3c0.2,1.5,0.5,2.8,0.7,3.9c0.1-1.3,0.6-2.5,1.2-3.7
				c0.7-1.2,1.5-2.3,2.5-3.3s2.1-1.8,3.4-2.5c1.3-0.7,2.5-1.1,3.8-1.4c0.6-0.1,1-0.1,1.4,0s0.6,0.2,0.8,0.4c0.1,0.2,0.2,0.5,0.1,0.9
				C727.2,302.2,726.9,302.6,726.4,302.9z"/>
			<path class="img-type-st3" d="M733.2,304.1c0,0.6,0.1,1.3,0.2,2.2c0.1,0.9,0.2,1.8,0.3,2.8c0.1,0.9,0.2,1.9,0.4,2.8
				c0.1,0.9,0.3,1.8,0.4,2.6c0.4-0.8,0.9-1.8,1.5-3s1.2-2.3,1.9-3.4s1.3-2,2-2.8s1.3-1.2,1.9-1.2c0.6,0,1.1,0.3,1.6,0.9
				s1,1.3,1.3,2.1c0.4,0.8,0.7,1.7,1,2.6s0.5,1.7,0.7,2.5c0.2-0.5,0.4-1,0.6-1.7c0.2-0.6,0.5-1.2,0.8-1.9c0.3-0.7,0.6-1.3,1-1.9
				s0.7-1.2,1.1-1.7c0.5-0.5,1-0.9,1.6-1.1s1-0.4,1.2-0.4c0.3,0,0.7,0.1,1.2,0.3c0.5,0.2,0.9,0.5,1.4,0.8s0.9,0.7,1.4,1.2
				c0.4,0.5,0.8,0.9,1,1.4c0.5,1,0.9,2.1,1.3,3.3c0.3,1.2,0.6,2.3,0.7,3.4c0.2,1.1,0.3,2.1,0.3,2.9c0.1,0.8,0.1,1.4,0.1,1.8
				c0,0.5-0.1,0.9-0.2,1.1c-0.1,0.2-0.3,0.4-0.6,0.6c-0.4,0.2-0.8,0.2-1.1,0.2c-0.3-0.1-0.6-0.2-0.7-0.4c-0.2-0.2-0.3-0.4-0.4-0.6
				c-0.1-0.2-0.2-0.5-0.2-0.7c-0.1-0.9-0.2-1.7-0.4-2.6c-0.1-0.9-0.3-1.8-0.4-2.6c-0.1-0.8-0.3-1.6-0.5-2.4
				c-0.2-0.7-0.4-1.4-0.6-1.9c-0.1-0.1-0.2-0.3-0.4-0.6c-0.2-0.2-0.4-0.5-0.6-0.7c-0.2-0.2-0.4-0.4-0.6-0.6
				c-0.2-0.2-0.3-0.3-0.4-0.3c-0.4,0-0.8,0.4-1.2,1c-0.4,0.7-0.8,1.5-1.2,2.5s-0.7,2-1,3c-0.3,1.1-0.5,2-0.7,2.7
				c0,1-0.2,1.7-0.6,2.2c-0.4,0.5-0.8,0.7-1.2,0.7s-0.8-0.2-1.3-0.5s-0.8-0.7-0.9-1.1c-0.2-0.6-0.5-1.3-0.7-2
				c-0.3-0.7-0.5-1.5-0.8-2.3s-0.6-1.6-0.8-2.3c-0.3-0.7-0.6-1.4-0.8-2c-0.5,0.7-1,1.5-1.5,2.4s-1,1.7-1.5,2.6s-0.9,1.8-1.3,2.7
				c-0.4,0.9-0.8,1.6-1.2,2.3c-0.3,0.4-0.5,0.8-0.8,1.1c-0.3,0.3-0.6,0.5-1.1,0.5c-0.3,0-0.6-0.1-1-0.4c-0.3-0.3-0.7-0.6-1-1
				s-0.6-0.9-0.8-1.4s-0.4-1-0.5-1.6c-0.3-1.6-0.5-3.4-0.8-5.3c-0.2-1.9-0.4-3.8-0.6-5.6c0-0.6,0.1-1.2,0.3-1.8
				c0.2-0.5,0.6-0.9,1.2-1.1c0.6-0.1,1.1,0,1.5,0.3C732.9,303,733.1,303.5,733.2,304.1z"/>
			<path class="img-type-st3" d="M778.7,301.5c0.1,1,0.3,2.2,0.4,3.3c0.1,1.2,0.2,2.4,0.2,3.6c0.1,1.2,0.1,2.3,0.1,3.5c0,1.1,0,2.1-0.1,3
				c1.2,0.8,1.9,1.6,2.2,2.2c0.2,0.6,0.3,1.2,0.1,1.7c-0.2,0.7-0.6,1-1.2,1c-0.6,0-1.2-0.2-2-0.6c-0.5,0.4-1.1,0.8-1.8,1.2
				c-0.7,0.4-1.4,0.8-2.1,1.2c-0.7,0.4-1.5,0.7-2.2,1s-1.4,0.5-2.1,0.6c-1.2,0.2-2.3,0-3.2-0.7c-0.9-0.6-1.6-1.6-1.9-2.9
				c-0.2-0.9-0.3-1.7-0.2-2.7c0.1-0.9,0.4-1.8,0.8-2.6c0.4-0.8,1.1-1.6,1.8-2.3c0.8-0.7,1.7-1.2,2.7-1.6c0.3-0.1,0.6-0.2,1.1-0.3
				c0.5-0.1,1-0.1,1.5-0.1s1,0.1,1.5,0.3c0.5,0.2,1,0.5,1.5,0.9c0-0.6,0-1.3,0-2.1c0-0.8-0.1-1.5-0.1-2.3s-0.1-1.5-0.1-2.2
				c-0.1-0.7-0.1-1.3-0.2-1.8c-0.1-0.6-0.3-0.9-0.6-1c-0.4-0.1-0.8-0.1-1.3,0.1c-0.9,0.3-1.9,0.9-3.1,1.7c-1.2,0.9-2.3,1.8-3.4,2.8
				c-0.3,0.3-0.7,0.5-1.2,0.5c-0.4,0-0.8-0.2-1.1-0.5s-0.5-0.6-0.5-1s0.1-0.8,0.5-1.3c0.6-0.7,1.3-1.4,2.1-2.1s1.6-1.4,2.5-1.9
				c0.9-0.6,1.7-1.1,2.6-1.4c0.9-0.4,1.8-0.6,2.7-0.6c1.3,0,2.3,0.3,3,0.9C778.1,299.7,778.5,300.5,778.7,301.5z M772.2,313.5
				c-0.5,0.1-1,0.4-1.5,0.7c-0.5,0.4-1,0.8-1.5,1.3c-0.4,0.5-0.7,1.1-1,1.7c-0.2,0.6-0.2,1.2,0,1.8c0.1,0.2,0.2,0.4,0.5,0.5
				c0.2,0.1,0.5,0.1,0.8,0.1c0.9-0.2,1.9-0.6,3-1.1s2.1-1.1,2.7-1.8c0-0.2-0.1-0.5-0.3-0.9s-0.5-0.7-0.8-1.1s-0.6-0.7-1-0.9
				C772.8,313.6,772.5,313.5,772.2,313.5z"/>
			<path class="img-type-st3" d="M789.6,296c0.2,4.1,0.5,8.3,1,12.6c0.4,4.3,0.9,8.5,1.5,12.5c0.1,1.6-0.3,2.5-1.3,2.5
				c-0.2,0-0.4-0.1-0.7-0.3c-0.2-0.2-0.4-0.4-0.6-0.7c-0.2-0.3-0.4-0.5-0.5-0.8c-0.2-0.3-0.3-0.6-0.3-0.8c-0.3-1.9-0.6-3.9-0.8-6
				c-0.3-2.1-0.5-4.3-0.7-6.4s-0.4-4.2-0.5-6.3c-0.1-2.1-0.2-3.9-0.3-5.7c0.1-0.9,0.2-1.6,0.4-2.3c0.2-0.6,0.6-0.9,1.2-0.9
				c0.6,0,1.1,0.3,1.4,0.8C789.4,294.8,789.5,295.3,789.6,296z"/>
		</g>
	</g>
</g>
<g id="img-type-l-info">
	<g id="img-type-l4">
		<g>
			<g>
				<path class="img-type-st4" d="M29.6,1.7l32.3,4.9L68,54.7L65,1.5L29.6,1.7z"/>
			</g>
		</g>
		<path class="img-type-st5" d="M33.5,81c-0.3-15-0.8-30-1.7-44.9c-0.4-7.5-0.9-15-1.5-22.4c-0.1-1.6-0.3-3.3-0.4-4.9c-0.1-0.9-1.1-5-0.5-5.8
			c1.4-2.1,8-0.6,10.5-0.6c7.1,0,14.3-0.1,21.4-0.2c2.2,0,2.5-0.5,3.2,1c0.2,0.5,0.2,1.9,0.2,2.4c0.2,2.1,0.3,4.2,0.4,6.3
			c0.4,7.9,0.6,15.8,0.4,23.8c0,1.2,1.8,1.2,1.9,0C67.7,24.2,68,12.1,66.1,1c-0.1-0.4-0.5-0.7-0.9-0.7C52.9,0,40.6,0.8,28.3,0
			c-0.5,0-1,0.5-0.9,0.9c2.3,26.6,3.7,53.3,4.2,80C31.6,82.2,33.5,82.2,33.5,81"/>
		<path class="img-type-st5" d="M30.3,25.9c-7.7-0.4-15.4,0-23.1-0.3c-4.9-0.2-7.7,0.5-7.1,6c1.8,17.7,2.5,35.3,1.2,53.1
			c-0.1,1.2,1.8,1.2,1.9,0c1.1-14.5,1-29-0.2-43.5c-0.1-1.6-0.3-3.2-0.4-4.8c-0.1-1.1-1-4.7-0.7-5.8c1.5-4.4,5.8-3.1,9.4-3
			c6.4,0.1,12.7-0.1,19.1,0.2C31.5,27.8,31.5,26,30.3,25.9"/>
		<path class="img-type-st5" d="M36.3,8.9c-0.2,5.1-0.1,10.2,0.3,15.3c0,0.5,0.4,1,0.9,0.9c4.2-0.2,8.4-0.4,12.7-0.6c0.5,0,1-0.4,0.9-0.9
			c-0.6-4.9-0.8-9.8-0.5-14.7c0-0.5-0.4-1-0.9-0.9c-4.1,0.5-8.1-0.1-12.2-0.1c-1.2,0-1.2,1.9,0,1.9c4.1,0,8.1,0.6,12.2,0.1
			c-0.3-0.3-0.6-0.6-0.9-0.9c-0.3,4.9-0.1,9.8,0.5,14.7c0.3-0.3,0.6-0.6,0.9-0.9c-4.2,0.2-8.4,0.4-12.7,0.6c0.3,0.3,0.6,0.6,0.9,0.9
			C38.1,19.1,38,14,38.2,8.9C38.2,7.7,36.4,7.7,36.3,8.9"/>
		<path class="img-type-st5" d="M37.3,33.2c0.2,2.9,0.3,5.7,0.5,8.6c0.1,1.2-0.3,4.9,0.4,5.9c1,1.3,4.4,0.8,5.7,0.8c1.8,0,6.3,0.4,7.5-1.4
			c0.9-1.4,0.3-4.2,0.3-5.6c-0.1-2.9-0.2-5.8-0.3-8.6c0-0.7-0.6-1-1.2-0.9c-4,0.7-7.9,0.6-11.9,0.3c-1.2-0.1-1.2,1.8,0,1.9
			c4.2,0.3,8.3,0.3,12.4-0.4c-0.4-0.3-0.8-0.6-1.2-0.9c0.2,3.6,0.5,7.2,0.4,10.8c0,1.1,0.1,2.1-0.8,2.7c-0.4,0.2-1.2,0.2-1.6,0.2
			c-1.3,0.1-2.6,0.1-3.9,0.1c-1,0-2.1,0-3.1-0.1c-1.4-0.2-0.6-0.3-0.7-2.1c-0.2-3.8-0.4-7.5-0.6-11.3C39.1,32.1,37.3,32,37.3,33.2"
			/>
		<path class="img-type-st5" d="M45.8,74.1c-1.8,0-3.5,0.3-5.3,0.3c0.3,0.3,0.6,0.6,0.9,0.9c-0.3-5-0.8-10-0.3-14.9c-0.3,0.3-0.6,0.6-0.9,0.9
			c3.8,0.3,7.5-0.4,11.3-0.4c1.2,0,1.2-1.9,0-1.9c-3.8,0-7.5,0.7-11.3,0.4c-0.5,0-0.9,0.5-0.9,0.9c-0.5,5,0,10,0.3,14.9
			c0,0.5,0.4,0.9,0.9,0.9c1.8,0,3.5-0.3,5.3-0.3C47,75.9,47,74,45.8,74.1"/>
		<path class="img-type-st5" d="M23.3,61c0,2.1,0.1,4.2,0.3,6.3c0.1,1.2,0.2,2.5,0.2,3.7c0,0.3,0.3,2.3,0.1,2.6c-0.5,0.6-2.8,0.1-3.5,0.1
			c-1.1,0-2.2,0-3.2-0.1c-1.2,0-3.2,0.3-4.3-0.1c-1.1,0.3-1.5-0.1-1.3-1.3c0-0.5,0-1.1,0-1.6c0-2.5,0-5,0-7.5c0-1.5-0.2-1.4,1.1-1.7
			c0.7-0.2,1.6-0.1,2.4-0.1c1.7,0,3.4,0,5.1,0c0.7,0,1.4,0,2.1,0.1c0.4,0,1.5,0.4,1.2,0c0.6,1,2.2,0.1,1.6-0.9
			c-0.5-1-2.2-0.9-3.1-0.9c-2.7-0.2-5.4-0.2-8-0.1c-1.5,0.1-3.6-0.3-4.3,1.4c-0.5,1.2-0.1,3.7-0.1,5v5.9c0,2.4,0.1,3.5,2.7,3.6
			c2,0.1,4,0.1,5.9,0.1c1.8,0,4.2,0.5,6,0.1c1.9-0.5,1.6-2.1,1.6-3.7c-0.1-3.6-0.5-7.3-0.5-10.9C25.2,59.9,23.3,59.8,23.3,61"/>
		<path class="img-type-st5" d="M21.2,35.4c0,3.6,0.3,7.2,0.4,10.8c0,0.3,0.3,2.2,0.1,2.4c-0.2,0.2-2.3,0-2.7,0c-0.9,0-1.8,0-2.7,0
			c-0.5,0-2.9,0.2-3.3,0c-1.6-1.2-1.2-4.7-1.1-6.4c0-0.8-0.3-5,0.5-5.4c0.3-0.2,2.6,0.2,2.9,0.2c0.8,0,1.7,0.1,2.5,0
			c1.6,0,3.1-0.3,4.6-0.6c1.2-0.3,0.7-2.1-0.5-1.8c-3.1,0.8-6,0.5-9.1,0.3c-1.1-0.1-1.9,0-2.4,1.1c-0.9,2.1-0.5,5.5-0.4,7.8
			c0,1.6-0.4,4.8,1,6c1.5,1.2,4.7,0.6,6.3,0.6c1.4,0,4.5,0.7,5.7-0.4c1.2-1.1,0.5-4,0.4-5.4c-0.1-3.1-0.3-6.1-0.3-9.2
			C23.1,34.2,21.2,34.2,21.2,35.4"/>
		<g>
			<g>
				<path class="img-type-st4" d="M1.1,27.3l25.3,5.6L32.5,81l-3-53.2L1.1,27.3z"/>
			</g>
		</g>
	</g>
	<g id="img-type-l3">
		<g>
			<g>
				<path class="img-type-st9" d="M67.9,67.4c-0.7,3.6-2.9,7.1-6.4,8.1c0,3.3,2.1,6.5,5.1,8.1c2.9,1.6,6.5,1.8,9.8,1.2c3.3-0.6,6.4-2,9.4-3.5
					c2.1-1.1,4.1-2.3,6.1-3.6c0.4-0.3,1-0.4,1.3-0.9c0.4-0.5,0.6-1.2,0.8-1.8c0.6-2.2,1.4-4.4,2.6-6.4c0.5-0.7,1-1.4,1.1-2.3
					c0.1-0.7,0-1.4-0.1-2c-0.2-2.2,0.9-4.4,0.5-6.5c-0.1-0.4-0.2-0.7-0.5-1c-0.2-0.2-0.6-0.4-0.9-0.4c-1.8-0.4-3.5-0.5-5.2-0.9
					c-2.2,5.2-5.3,9.9-8.9,14.3c-0.2,0.2-0.3,0.5-0.6,0.5c-0.3,0-0.6-0.2-0.8-0.5c-2.8-4-5.5-8.1-8.4-12.1c-0.2-0.3-0.5-0.6-0.9-0.8
					c-0.3-0.2-0.7-0.1-1-0.2c-1.5-0.1-1.8,0.4-3.3,0.3C67.2,62.3,68.5,63.9,67.9,67.4"/>
			</g>
		</g>
		<path class="img-type-st10" d="M94.1,49.3h6.6c0,0,4.8-31.2-10.8-33c0,0-21-10.8-26.4,5.4s-2,26.6-2,26.6l6.9-0.4l-1.8-9
			c0,0,17.6-7.8,22-15.8l8.2,14.6C96.7,37.7,94.6,47.8,94.1,49.3"/>
		<path class="img-type-st7" d="M94.1,49.3h6.6c0,0,4.8-31.2-10.8-33c0,0-21-10.8-26.4,5.4s-2,26.6-2,26.6l6.9-0.4l-1.8-9
			c0,0,17.6-7.8,22-15.8l8.2,14.6C96.7,37.7,94.6,47.8,94.1,49.3z"/>
		<path class="img-type-st5" d="M65.4,56.5c0.6,5.9,0.8,12.4-3.3,17c-0.3,0.3-0.7,0.4-1,0.6c-0.4,0.3,1.1,0.1,0.6,0.3c-0.1,0-0.4-0.3-0.6-0.3
			c-1.3,0.3-2,0.5-2.1,2.1c-0.1,1.2,1.8,1.2,1.9,0c0.1-2-1.1,0.4,0.2-0.2c0.2-0.1,0.5-0.1,0.7-0.2c1-0.2,2-1.4,2.6-2.1
			c3.8-4.6,3.4-11.7,2.9-17.3C67.1,55.3,65.3,55.3,65.4,56.5"/>
		<path class="img-type-st5" d="M97.2,56.7c-0.1,4.2-0.2,8.5-0.3,12.7c0,1.6-0.8,5.5,0.2,6.8c1.2,1.5,1.7,0.3,3.2,0.9c2.6,1,1.9,10.1,2,12.5
			c0.1,1.2,1.9,1.2,1.9,0c-0.2-2.6-0.3-5.2-0.5-7.8c-0.1-1.2,0.1-3.5-0.3-4.7c-0.5-1.1-0.6-1.5-1.8-1.9c-0.6-0.2-1.8,0.3-2.3,0.1
			c-1.3-0.7-0.5-4.5-0.5-5.9c0.1-4.2,0.2-8.5,0.3-12.7C99.1,55.5,97.2,55.5,97.2,56.7"/>
		<path class="img-type-st5" d="M49.9,77.4c-0.1-4.9,1.6-9.8,3.9-14c0.8-1.5,1.8-3.4,3.3-4.3c2.5-1.6,7.6-1.9,10.4-2.2c3-0.3,3.8,0,5.2,2.4
			c1.3,2.1,2.4,4.4,3.8,6.4c1.3,1.9,2.7,3.7,4.3,5.3c0.3,0.3,0.8,0.3,1.1,0.1c1.8-1,3.2-3.6,4.4-5.2c1.3-1.9,2.5-3.9,3.6-5.9
			c1.2-2.1,1.9-2.9,4.5-2.9c1.5,0,3.1,0.5,4.5,0.8c6.6,1.6,12.6,5.1,14.2,12.2c1.3,5.9,0.6,12.6,0.7,18.6c0,1.2,1.9,1.2,1.9,0
			c-0.1-7.8,1.6-18.4-3.3-25.1s-13.7-8-21.4-8.9c-0.3,0-0.7,0.2-0.8,0.5c-1.5,3.2-3.2,6.2-5.2,9.1c-0.7,1-4.4,4.9-3,5.2
			c-1-0.2-2.6-3.1-3.2-3.8c-2.4-3.2-4.3-6.7-5.8-10.3c-0.2-0.4-0.5-0.7-0.9-0.7c-5.8,0.2-14.4-0.2-18.2,4.9
			c-3.6,4.9-6,11.7-5.9,17.7C48.1,78.6,50,78.6,49.9,77.4"/>
		<path class="img-type-st10" d="M115.2,67.4c-5.4-0.3-10.9-0.7-16.3-1c-0.2,0-0.5,0-0.7,0c-0.6,0.2-0.9,0.8-1.1,1.3
			c-1.4,2.9-4.3,8.5-4.3,8.5l4.7,3.8c1.3,1.8,0.5,4.3-1.5,5.1l-9.3,2.2c0,0-0.9,1.5-1.3,2.2c5.2,0.8,10.4,1.3,15.6,1.7
			c0.5,0,1.1,0.1,1.5-0.2c0.4-0.2,0.7-0.6,0.9-1.1c4-6.5,8-13,12-19.5c0.5-0.8,0.9-1.8,0.3-2.4"/>
		<path class="img-type-st5" d="M115.2,66.5l-11.8-0.7c-2.1-0.1-4.7-1-6.4,0.4c-2.3,1.8-3.7,7-5.1,9.6c-0.2,0.3-0.2,0.9,0.1,1.1
			c1.1,0.9,3.6,2.2,4.2,3.4c1.4,3.2-1.6,4.1-3.9,4.7c-3.8,0.9-5.9,0.7-7.9,4.1c-0.3,0.5-0.1,1.3,0.6,1.4c4.6,0.7,9.2,1.4,13.9,1.6
			c3.8,0.1,4.2,0,6.2-3.2c2.7-4.3,5.3-8.7,8-13c1.6-2.5,4-4.9,3.4-8c-0.2-1.2-2-0.7-1.8,0.5c0.5,2.4-3.1,6.4-4.2,8.2
			c-1.7,2.7-3.3,5.4-5,8.1c-0.6,1.1-1.2,2.3-2,3.3c-2.3,2.8-2.8,2.4-5.6,2.2c-4.1-0.4-8.3-0.9-12.4-1.4c0.2,0.5,0.4,0.9,0.6,1.4
			c1.3-2.2,1.3-1.9,4-2.6c1.8-0.4,3.8-0.7,5.6-1.3c2.7-1,4.4-4,2.5-6.6c-0.8-1.2-2.6-2.2-3.7-3.1c-0.9-0.7-0.7-1-0.8,0.1
			c0-0.8,1.2-2.3,1.5-3c0.7-1.4,1.3-3.1,2.2-4.4c1.1-1.7,1.2-1.5,3.3-1.7c4.6-0.5,9.9,0.6,14.5,0.9
			C116.4,68.4,116.4,66.5,115.2,66.5"/>
		<path class="img-type-st5" d="M59.3,75.6c3.3,10.5,12.4,12.7,22,8.3c2.7-1.3,5.3-2.9,7.8-4.6c0.9-0.6,1.8-1.3,2.7-1.9
			c7.3,0.4,6.3,7.7,0.5,8.1c-0.5,0.5-2.9,0.7-3.7,1c-4.4,1.8-8.2,4.7-12.9,5.9C65,95,50.3,90,49.9,77.4c0-1.1-1.8-1.1-1.7,0
			c0.3,9.6,8,15.5,17,16.9c6.1,1,11.7,0.1,17.2-2.6c3-1.4,5.6-3.3,8.8-4.2c2.3-0.7,5-0.9,6.6-2.9c2.6-3.3,0.5-7.4-3.1-8.8
			c-1.7-0.6-2.3-0.4-3.7,0.1c-4.3,1.7-7.8,5.6-12.3,7.3c-8.2,3.1-15.1,0.3-17.6-8C60.6,74.1,58.9,74.5,59.3,75.6"/>
		<path class="img-type-st5" d="M95.4,38.1c-1.2,7.9-3.3,18.6-12.8,20.3c-10.3,1.8-14.1-11.5-14.9-19.3c-0.1-1.2-2-1.2-1.9,0
			c0.9,8.1,4.5,21.3,14.7,21.4c11.6,0.1,15.1-12.8,16.6-21.9C97.4,37.4,95.6,36.9,95.4,38.1"/>
		<line class="img-type-st7" x1="81.5" y1="69.7" x2="81.5" y2="82.6"/>
		<g>
			<g>
				<path class="img-type-st4" d="M84.3,24.2c-5,5.6-11.2,10.1-18.1,13.2c-0.6,0.3-0.1,0.6-0.5,1.1c-0.4,0.6-0.5,1.4-0.4,2.2
					c0.2,2.4,0.7,2.3,1.5,5.5c-1.3,0.7-3.5,0.9-4.1,0.3c-1-1-1-3.2-1-4.6c0-6.2,0.2-12.7,3-18.3c2.8-5.6,8.9-10,15-8.9
					c3.2,0.6,6,2.6,9.2,3.3c1.2,0.3,2.4,0.4,3.5,0.9c1.9,0.8,3.3,2.5,4.4,4.3c3.7,6.4,3.9,14.2,3,21.5c-0.1,1.2-0.1,2.2-1.1,2.7
					s-1.6,0.9-3.1,0.1c1.1-3.6,1.9-6.7,2.2-10.4c-3.5-2.7-6-6.6-6.9-10.9c-0.3-1.4-0.4-2.8-1.1-4C89,21,87.6,20,86.2,20.4
					C86.2,20.4,85.6,22.7,84.3,24.2"/>
			</g>
		</g>
		<path class="img-type-st7" d="M63.8,39.2c15.9-2.3,24.9-17.5,24.9-17.5s1.8,13.8,9.6,16.8"/>
		<g>
			<g>
				<path class="img-type-st9" d="M116.1,77.7c-0.1-0.4-0.2-0.8,0-1.2c0.2-0.5,0.7-0.7,1.2-1c2.8-1.6,3.5-5.4,3.1-8.7
					c-0.4-3.2-1.5-6.4-1.2-9.7c0-0.5,0.1-1,0.5-1.3c0.3-0.3,0.8-0.3,1.2-0.3c0.9-0.1,1.9-0.1,2.8-0.2c0.5,0,1,0,1.3,0.2
					c0.4,0.2,0.6,0.6,0.7,1c1.3,2.6,2.8,5,4.7,7.2c0.6,0.8,1.3,1.5,1.8,2.3c0.9,1.6,1.3,3.6,0.8,5.4c-0.2-1.7,0.6-3.3,1.6-4.6
					c1.1-1.3,2.4-2.4,3.6-3.6c1.5-1.5,2.8-3.3,3.8-5.2c0.4-0.7,0.8-1.5,1.5-1.9c0.4-0.2,0.9-0.3,1.4-0.3l4.4-0.3
					c-3.1,5-2.1,12.2,2.3,16.2c0.5,0.5,1.1,1,1.4,1.6c0.2,0.4,0.3,0.9,0.3,1.3c0.4,2.6,0.5,5.2,0.5,7.9c0,1.1-0.1,2.3-0.9,3
					c-0.5,0.4-1.1,0.6-1.7,0.7c-3.8,0.8-7.7,1.4-11.4,0.6c-1.1-0.2-2.1-0.5-3.2-0.6c-1-0.1-2.1,0.1-3.1,0.2
					c-3.1,0.5-6.1,1.2-9.2,1.5c-1.3,0.2-2.7,0.2-4-0.3c-1.1-0.5-1.9-1.5-2.7-2.4C116.2,83.4,116.8,81.5,116.1,77.7"/>
			</g>
		</g>
		<g>
			<g>
				<path class="img-type-st4" d="M137,38.2c-6.1,0-14.7-1.2-15.8-1.5c-1.1-0.3-2.6-1-3.6-2.2l0,0c0.1-0.1,0.3-0.3,0.7-0.5
					c1.1-0.7,2.2-1.4,3.4-2c0.4-0.2,0.6,0.1,0.9-0.2c0.3-0.4,0.1-0.5,0.2-0.9c0.3-1.5,1.5-5.9,2.8-8c1.6-2.7,3.9-4.6,6.3-5.2
					c0.7-0.2,1.4-0.3,2.1-0.3c0.4,0,0.9,0,1.3,0.1c3.8,0.4,7.4,2.7,9.3,6c0.7,1.2,1.1,2.6,1.6,3.9c0.5,1.4,1,3,0.8,4.5
					c0,0.1,0,0.1,0,0.1c0,0.2,0.1,0.2,0,0.3c-0.5,1-1.2,1.9-2.2,3s-1.9,1.8-2.8,2.3C141.8,37.7,140.6,38.3,137,38.2
					C137,38.3,137,38.2,137,38.2"/>
			</g>
		</g>
		<path class="img-type-st5" d="M146.8,35.3c-1,6.6-0.9,14.4-6.1,19.4c-10.5,10.1-19.5-6.8-19.3-16c0-1.2-1.8-1.2-1.9,0
			c-0.2,8.2,5.4,22.2,15.6,20.8c11.4-1.6,12.2-14.9,13.6-23.7C148.8,34.6,147,34.1,146.8,35.3"/>
		<path class="img-type-st5" d="M106.9,59.8c3.3-2.5,7.5-3.3,11.5-4c1.3-0.2,5.6-1.3,6.9-0.1c0.7,0.6,1.3,2.8,1.8,3.6
			c1.5,2.7,3.9,7.5,6.7,9.2c0.4,0.2,1.1,0.1,1.3-0.3c0.7-1.6,2.3-3,3.3-4.5c1.1-1.6,2.1-3.2,3.1-4.9c0.9-1.7,0.9-2.1,2.8-2.7
			c1.7-0.6,3-0.2,4.8,0.1c5.6,1.2,11.4,4,13.1,9.9c1.6,5.4,0.8,12.2,0.9,17.8c0,1.2,1.9,1.2,1.9,0c-0.1-7.1,1.5-16.8-3.3-22.8
			c-4.5-5.8-12.2-6.8-18.9-7.7c-0.3,0-0.7,0.2-0.8,0.5c-1.6,3.3-3.4,6.4-5.5,9.4c-0.8,1.1-1.7,3.1-2.8,3.7c1.4-0.9,0.7,0.4,0.3-1.1
			c-0.3-1.1-1.7-2.1-2.3-3.1c-1.9-2.7-3.7-5.6-4.8-8.8c-0.1-0.4-0.5-0.7-0.9-0.7c-6.5,0.3-14.5,0.8-19.9,4.9
			C105.1,58.9,106,60.5,106.9,59.8"/>
		<path class="img-type-st5" d="M117.6,55c0.3,6.2,2.5,13.9-2.5,18.8c-0.9,0.8,0.5,2.2,1.3,1.3c5.4-5.4,3.3-13.4,3-20.1
			C119.4,53.8,117.5,53.8,117.6,55"/>
		<path class="img-type-st5" d="M148.2,55c-1.4,4.9-2.2,10.4,0.6,15c0.7,1.2,1.8,2,2.5,3.1c1.8,2.7,1.2,8.3,1.4,11.6c0.1,1.2,1.9,1.2,1.9,0
			c-0.3-4.6,0.5-9.6-2.3-13.2c-3.8-5.2-4.1-9.5-2.3-15.9C150.3,54.3,148.5,53.8,148.2,55"/>
		<path class="img-type-st5" d="M149.9,32.1c0.2-8.2-5.8-16.4-14.3-17.3c-9.7-1-13.9,8.3-15.7,16.2c-0.3,1.2,1.5,1.7,1.8,0.5
			c1.4-6.5,4.4-15,12.5-14.9c8,0,13.9,7.9,13.8,15.6C148,33.3,149.9,33.3,149.9,32.1"/>
		<path class="img-type-st5" d="M148.7,31.7c-7.2,3.3-20.5,4.1-27-1c-0.9-0.7-2.3,0.6-1.3,1.3c7.5,5.8,21,5.1,29.3,1.3
			C150.7,32.8,149.8,31.2,148.7,31.7"/>
		<path class="img-type-st5" d="M148.1,32.3c-2.2,3.9-5,6.6-9.5,6.8c-2.9,0.2-5.8-0.1-8.7-0.4c-2.6-0.2-5.3-0.5-7.8-1
			c-1.1-0.3-2.5-0.4-3.3-1.2c-3.4-3.3,0.7-4.3,2.7-5.2c1.1-0.5,0.1-2.1-0.9-1.6c-2.8,1.3-7.3,3-4.9,6.6c2,3,6.8,3.4,10,3.8
			c4.7,0.6,9.6,1.3,14.3,0.8c4.5-0.5,7.6-3.7,9.7-7.6C150.3,32.2,148.7,31.2,148.1,32.3"/>
		<line class="img-type-st7" x1="133.7" y1="67.9" x2="133.7" y2="85.9"/>
	</g>
	<g id="img-type-l2">
		<path class="img-type-st8" d="M6.1,135.6l0.5,2.1l0,0l0.5-2.2l3.4-9.6h1.7l-5.3,14.2H6.1L0.7,126h1.8L6.1,135.6z"/>
		<path class="img-type-st8" d="M12.2,135c0-1.7,0.4-3,1.1-3.9c0.7-0.9,1.8-1.3,3.3-1.3c0.7,0,1.4,0.1,2,0.4c0.6,0.2,1,0.6,1.4,1
			c0.4,0.5,0.6,1,0.8,1.7c0.2,0.6,0.3,1.4,0.3,2.2c0,1.7-0.4,3-1.1,3.9c-0.8,0.9-1.8,1.3-3.3,1.3c-0.8,0-1.4-0.1-2-0.4
			c-0.6-0.2-1-0.6-1.4-1.1s-0.6-1-0.8-1.7C12.3,136.5,12.2,135.8,12.2,135z M13.8,135c0,0.5,0,1,0.1,1.5s0.3,0.9,0.5,1.2
			s0.5,0.6,0.8,0.8c0.4,0.2,0.8,0.3,1.3,0.3c1.8,0,2.7-1.3,2.7-3.8c0-0.5-0.1-1-0.2-1.5s-0.3-0.9-0.5-1.2s-0.5-0.6-0.8-0.8
			s-0.8-0.3-1.3-0.3C14.7,131.1,13.8,132.4,13.8,135z"/>
		<path class="img-type-st8" d="M25.4,137.5c0,0.5,0.1,0.8,0.2,1c0.2,0.2,0.4,0.3,0.7,0.3c0.2,0,0.4,0,0.6,0s0.4-0.1,0.7-0.2l0.2,1.3
			c-0.2,0.1-0.5,0.2-0.9,0.3s-0.7,0.1-1,0.1c-0.6,0-1.1-0.2-1.5-0.5s-0.6-0.9-0.6-1.7v-12h1.6C25.4,126.1,25.4,137.5,25.4,137.5z"/>
		<path class="img-type-st8" d="M31.1,130v5.7c0,0.5,0,1,0.1,1.4s0.2,0.7,0.3,1c0.1,0.3,0.3,0.5,0.6,0.6s0.6,0.2,1,0.2s0.7-0.1,1-0.2
			c0.3-0.1,0.5-0.3,0.8-0.5c0.2-0.2,0.4-0.4,0.6-0.7c0.2-0.3,0.3-0.5,0.4-0.8V130h1.6v7.2c0,0.5,0,1,0,1.5s0.1,1,0.2,1.3h-1.1
			l-0.4-1.6h-0.1c-0.3,0.5-0.7,1-1.2,1.3s-1.2,0.5-2,0.5c-0.5,0-1-0.1-1.4-0.2c-0.4-0.1-0.8-0.3-1-0.7c-0.3-0.3-0.5-0.8-0.6-1.3
			s-0.2-1.2-0.2-2v-6H31.1z"/>
		<path class="img-type-st8" d="M47,140v-5.7c0-1-0.2-1.8-0.5-2.3s-0.8-0.8-1.6-0.8c-0.7,0-1.3,0.2-1.8,0.6c-0.5,0.4-0.8,0.9-1,1.4v6.8h-1.6
			v-10h1.1l0.3,1.2H42c0.3-0.4,0.7-0.8,1.3-1c0.5-0.3,1.2-0.4,1.9-0.4c0.5,0,1,0.1,1.4,0.2c0.4,0.1,0.8,0.4,1,0.7
			c0.3,0.3,0.5,0.7,0.6,1.3c0.1,0.5,0.2,1.2,0.2,2v6H47z"/>
		<path class="img-type-st8" d="M50.5,130H52v-2l1.6-0.5v2.4h2.7v1.4h-2.7v5.5c0,0.7,0.1,1.2,0.3,1.5s0.5,0.4,0.9,0.4s0.6,0,0.9-0.1
			c0.2-0.1,0.5-0.2,0.8-0.3l0.4,1.2c-0.4,0.2-0.8,0.3-1.2,0.4c-0.4,0.1-0.9,0.2-1.4,0.2c-0.8,0-1.4-0.2-1.7-0.7s-0.5-1.2-0.5-2.3
			v-5.8h-1.6V130z"/>
		<path class="img-type-st8" d="M65.8,139.2c-0.4,0.3-0.9,0.6-1.5,0.8s-1.2,0.3-1.9,0.3c-0.8,0-1.4-0.1-2-0.4c-0.6-0.2-1-0.6-1.4-1.1
			s-0.6-1-0.8-1.6s-0.3-1.4-0.3-2.2c0-1.7,0.4-3,1.1-3.9c0.8-0.9,1.8-1.3,3.3-1.3c0.5,0,0.9,0.1,1.4,0.2c0.5,0.1,0.9,0.3,1.2,0.6
			c0.4,0.3,0.7,0.7,0.9,1.2c0.2,0.5,0.3,1.2,0.3,2c0,0.4,0,0.9-0.1,1.5h-6.4c0,0.6,0.1,1.1,0.2,1.6c0.1,0.4,0.3,0.8,0.6,1.1
			s0.6,0.6,1,0.7c0.4,0.2,0.9,0.3,1.5,0.3c0.5,0,0.9-0.1,1.4-0.2c0.5-0.2,0.8-0.4,1-0.6L65.8,139.2z M62.3,131.1
			c-0.8,0-1.4,0.2-1.9,0.6c-0.5,0.4-0.8,1.1-0.8,2.1h5c0-1-0.2-1.7-0.6-2.1S63,131.1,62.3,131.1z"/>
		<path class="img-type-st8" d="M75.9,139.2c-0.4,0.3-0.9,0.6-1.5,0.8s-1.2,0.3-1.9,0.3c-0.8,0-1.4-0.1-2-0.4c-0.6-0.2-1-0.6-1.4-1.1
			s-0.6-1-0.8-1.6c-0.2-0.6-0.3-1.4-0.3-2.2c0-1.7,0.4-3,1.1-3.9c0.8-0.9,1.8-1.3,3.3-1.3c0.5,0,0.9,0.1,1.4,0.2
			c0.5,0.1,0.9,0.3,1.2,0.6c0.4,0.3,0.7,0.7,0.9,1.2c0.2,0.5,0.3,1.2,0.3,2c0,0.4,0,0.9-0.1,1.5h-6.4c0,0.6,0.1,1.1,0.2,1.6
			c0.1,0.4,0.3,0.8,0.6,1.1c0.3,0.3,0.6,0.6,1,0.7c0.4,0.2,0.9,0.3,1.5,0.3c0.5,0,0.9-0.1,1.4-0.2c0.5-0.2,0.8-0.4,1-0.6L75.9,139.2
			z M72.5,131.1c-0.8,0-1.4,0.2-1.9,0.6c-0.5,0.4-0.8,1.1-0.8,2.1h5c0-1-0.2-1.7-0.6-2.1C73.7,131.3,73.2,131.1,72.5,131.1z"/>
		<path class="img-type-st8" d="M83.7,131.5c-0.4-0.1-0.8-0.2-1.1-0.2c-0.6,0-1,0.2-1.4,0.5c-0.3,0.3-0.5,0.7-0.6,1.2v7H79v-10h1.1l0.3,1.2
			h0.1c0.2-0.4,0.6-0.8,0.9-1c0.4-0.2,0.8-0.4,1.3-0.4c0.4,0,0.8,0.1,1.3,0.2L83.7,131.5z"/>
		<path class="img-type-st8" d="M86.2,130h1.6v10h-1.6V130z M85.9,126.9c0-0.3,0.1-0.6,0.3-0.8c0.2-0.2,0.5-0.3,0.8-0.3s0.6,0.1,0.8,0.3
			c0.2,0.2,0.3,0.5,0.3,0.8s-0.1,0.6-0.3,0.8c-0.2,0.2-0.5,0.3-0.8,0.3s-0.6-0.1-0.8-0.3C86,127.5,85.9,127.3,85.9,126.9z"/>
		<path class="img-type-st8" d="M97.8,140v-5.7c0-1-0.2-1.8-0.5-2.3s-0.8-0.8-1.6-0.8c-0.7,0-1.3,0.2-1.8,0.6c-0.5,0.4-0.8,0.9-1,1.4v6.8
			h-1.6v-10h1.1l0.3,1.2h0.1c0.3-0.4,0.7-0.8,1.3-1c0.5-0.3,1.2-0.4,1.9-0.4c0.5,0,1,0.1,1.4,0.2c0.4,0.1,0.8,0.4,1,0.7
			c0.3,0.3,0.5,0.7,0.6,1.3c0.1,0.5,0.2,1.2,0.2,2v6H97.8z"/>
		<path class="img-type-st8" d="M110.2,140.4c0,1.3-0.3,2.3-1,2.9c-0.7,0.6-1.7,0.9-3,0.9c-0.8,0-1.4-0.1-1.9-0.2c-0.5-0.1-0.9-0.2-1.3-0.4
			l0.4-1.4c0.3,0.1,0.6,0.2,1,0.3s0.9,0.2,1.5,0.2s1-0.1,1.4-0.2c0.4-0.1,0.6-0.3,0.8-0.5c0.2-0.2,0.4-0.5,0.5-0.9s0.1-0.8,0.1-1.3
			v-1h-0.1c-0.3,0.4-0.6,0.7-1,0.9s-0.9,0.3-1.6,0.3c-1.4,0-2.4-0.4-3-1.3c-0.6-0.8-0.9-2.1-0.9-3.9c0-1.7,0.4-3,1.2-3.9
			c0.8-0.9,2-1.3,3.6-1.3c0.8,0,1.4,0.1,2,0.2c0.5,0.1,1,0.3,1.5,0.4v10.2H110.2z M106.2,138.8c0.7,0,1.2-0.2,1.6-0.5
			s0.7-0.9,0.8-1.6v-5.1c-0.5-0.2-1.2-0.4-2-0.4c-0.9,0-1.6,0.3-2.1,0.9c-0.5,0.6-0.8,1.6-0.8,2.9c0,0.6,0,1.1,0.1,1.5
			c0.1,0.5,0.2,0.9,0.4,1.2c0.2,0.3,0.5,0.6,0.8,0.8C105.3,138.7,105.7,138.8,106.2,138.8z"/>
		<path class="img-type-st8" d="M117.6,130h1.6v-2l1.6-0.5v2.4h2.7v1.4h-2.7v5.5c0,0.7,0.1,1.2,0.3,1.5c0.2,0.3,0.5,0.4,0.9,0.4
			s0.6,0,0.9-0.1c0.2-0.1,0.5-0.2,0.8-0.3l0.4,1.2c-0.4,0.2-0.8,0.3-1.2,0.4c-0.4,0.1-0.9,0.2-1.4,0.2c-0.8,0-1.4-0.2-1.7-0.7
			c-0.3-0.5-0.5-1.2-0.5-2.3v-5.8h-1.6V130H117.6z"/>
		<path class="img-type-st8" d="M132.3,140v-5.7c0-0.5,0-1-0.1-1.4s-0.2-0.7-0.3-1c-0.2-0.3-0.4-0.5-0.6-0.6c-0.3-0.1-0.6-0.2-1.1-0.2
			c-0.6,0-1.2,0.2-1.7,0.6c-0.5,0.4-0.8,0.9-1,1.6v6.7h-1.6v-14h1.6v5.1h0.1c0.3-0.4,0.8-0.7,1.3-1c0.5-0.2,1.1-0.4,1.8-0.4
			c0.6,0,1,0.1,1.5,0.2c0.4,0.1,0.8,0.4,1,0.7c0.3,0.3,0.5,0.7,0.6,1.3c0.1,0.5,0.2,1.2,0.2,2v6L132.3,140L132.3,140z"/>
		<path class="img-type-st8" d="M141.7,131.5c-0.4-0.1-0.8-0.2-1.1-0.2c-0.6,0-1,0.2-1.4,0.5c-0.3,0.3-0.5,0.7-0.6,1.2v7H137v-10h1.1l0.3,1.2
			h0.1c0.2-0.4,0.6-0.8,0.9-1c0.4-0.2,0.8-0.4,1.3-0.4c0.4,0,0.8,0.1,1.3,0.2L141.7,131.5z"/>
		<path class="img-type-st8" d="M143.4,135c0-1.7,0.4-3,1.1-3.9c0.7-0.9,1.8-1.3,3.3-1.3c0.7,0,1.4,0.1,2,0.4c0.6,0.2,1,0.6,1.4,1
			c0.4,0.5,0.6,1,0.8,1.7c0.2,0.6,0.3,1.4,0.3,2.2c0,1.7-0.4,3-1.1,3.9c-0.8,0.9-1.8,1.3-3.3,1.3c-0.8,0-1.4-0.1-2-0.4
			c-0.6-0.2-1-0.6-1.4-1.1s-0.6-1-0.8-1.7C143.5,136.5,143.4,135.8,143.4,135z M145.1,135c0,0.5,0,1,0.1,1.5s0.3,0.9,0.5,1.2
			s0.5,0.6,0.8,0.8c0.4,0.2,0.8,0.3,1.3,0.3c1.8,0,2.7-1.3,2.7-3.8c0-0.5-0.1-1-0.2-1.5c-0.1-0.5-0.3-0.9-0.5-1.2s-0.5-0.6-0.8-0.8
			s-0.8-0.3-1.3-0.3C146,131.1,145.1,132.4,145.1,135z"/>
		<path class="img-type-st8" d="M156.3,130v5.7c0,0.5,0,1,0.1,1.4s0.2,0.7,0.3,1s0.3,0.5,0.6,0.6s0.6,0.2,1,0.2s0.7-0.1,1-0.2
			c0.3-0.1,0.5-0.3,0.8-0.5c0.2-0.2,0.4-0.4,0.6-0.7c0.2-0.3,0.3-0.5,0.4-0.8V130h1.6v7.2c0,0.5,0,1,0,1.5s0.1,1,0.2,1.3h-1.1
			l-0.4-1.6h-0.1c-0.3,0.5-0.7,1-1.2,1.3s-1.2,0.5-2,0.5c-0.5,0-1-0.1-1.4-0.2c-0.4-0.1-0.8-0.3-1-0.7c-0.3-0.3-0.5-0.8-0.6-1.3
			s-0.2-1.2-0.2-2v-6H156.3z"/>
		<path class="img-type-st8" d="M173.6,140.4c0,1.3-0.3,2.3-1,2.9c-0.7,0.6-1.7,0.9-3,0.9c-0.8,0-1.4-0.1-1.9-0.2c-0.5-0.1-0.9-0.2-1.3-0.4
			l0.4-1.4c0.3,0.1,0.6,0.2,1,0.3s0.9,0.2,1.5,0.2s1-0.1,1.4-0.2c0.4-0.1,0.6-0.3,0.8-0.5s0.4-0.5,0.5-0.9s0.1-0.8,0.1-1.3v-1H172
			c-0.3,0.4-0.6,0.7-1,0.9s-0.9,0.3-1.6,0.3c-1.4,0-2.4-0.4-3-1.3c-0.6-0.8-0.9-2.1-0.9-3.9c0-1.7,0.4-3,1.2-3.9s2-1.3,3.6-1.3
			c0.8,0,1.4,0.1,2,0.2c0.5,0.1,1,0.3,1.5,0.4v10.2H173.6z M169.5,138.8c0.7,0,1.2-0.2,1.6-0.5c0.4-0.3,0.7-0.9,0.8-1.6v-5.1
			c-0.5-0.2-1.2-0.4-2-0.4c-0.9,0-1.6,0.3-2.1,0.9c-0.5,0.6-0.8,1.6-0.8,2.9c0,0.6,0,1.1,0.1,1.5c0.1,0.5,0.2,0.9,0.4,1.2
			s0.5,0.6,0.8,0.8C168.7,138.7,169.1,138.8,169.5,138.8z"/>
		<path class="img-type-st8" d="M183.3,140v-5.7c0-0.5,0-1-0.1-1.4s-0.2-0.7-0.3-1c-0.2-0.3-0.4-0.5-0.6-0.6c-0.3-0.1-0.6-0.2-1.1-0.2
			c-0.6,0-1.2,0.2-1.7,0.6c-0.5,0.4-0.8,0.9-1,1.6v6.7h-1.6v-14h1.6v5.1h0.1c0.3-0.4,0.8-0.7,1.3-1c0.5-0.2,1.1-0.4,1.8-0.4
			c0.6,0,1,0.1,1.5,0.2c0.4,0.1,0.8,0.4,1,0.7c0.3,0.3,0.5,0.7,0.6,1.3c0.1,0.5,0.2,1.2,0.2,2v6L183.3,140L183.3,140z"/>
		<path class="img-type-st8" d="M192.9,135c0-1.7,0.4-3,1.1-3.9c0.7-0.9,1.8-1.3,3.3-1.3c0.7,0,1.4,0.1,2,0.4c0.6,0.2,1,0.6,1.4,1
			c0.4,0.5,0.6,1,0.8,1.7c0.2,0.6,0.3,1.4,0.3,2.2c0,1.7-0.4,3-1.1,3.9c-0.8,0.9-1.8,1.3-3.3,1.3c-0.8,0-1.4-0.1-2-0.4
			c-0.6-0.2-1-0.6-1.4-1.1s-0.6-1-0.8-1.7C193,136.5,192.9,135.8,192.9,135z M194.6,135c0,0.5,0,1,0.1,1.5s0.3,0.9,0.5,1.2
			s0.5,0.6,0.8,0.8c0.4,0.2,0.8,0.3,1.3,0.3c1.8,0,2.7-1.3,2.7-3.8c0-0.5-0.1-1-0.2-1.5c-0.1-0.5-0.3-0.9-0.5-1.2s-0.5-0.6-0.8-0.8
			s-0.8-0.3-1.3-0.3C195.5,131.1,194.6,132.4,194.6,135z"/>
		<path class="img-type-st8" d="M209.1,131.5c-0.4-0.1-0.8-0.2-1.1-0.2c-0.6,0-1,0.2-1.4,0.5c-0.3,0.3-0.5,0.7-0.6,1.2v7h-1.6v-10h1.1
			l0.3,1.2h0.1c0.2-0.4,0.6-0.8,0.9-1c0.4-0.2,0.8-0.4,1.3-0.4c0.4,0,0.8,0.1,1.3,0.2L209.1,131.5z"/>
		<path class="img-type-st8" d="M219,140.4c0,1.3-0.3,2.3-1,2.9c-0.7,0.6-1.7,0.9-3,0.9c-0.8,0-1.4-0.1-1.9-0.2c-0.5-0.1-0.9-0.2-1.3-0.4
			l0.4-1.4c0.3,0.1,0.6,0.2,1,0.3s0.9,0.2,1.5,0.2s1-0.1,1.4-0.2c0.4-0.1,0.6-0.3,0.8-0.5s0.4-0.5,0.5-0.9s0.1-0.8,0.1-1.3v-1h-0.1
			c-0.3,0.4-0.6,0.7-1,0.9s-0.9,0.3-1.6,0.3c-1.4,0-2.4-0.4-3-1.3c-0.6-0.8-0.9-2.1-0.9-3.9c0-1.7,0.4-3,1.2-3.9s2-1.3,3.6-1.3
			c0.8,0,1.4,0.1,2,0.2c0.5,0.1,1,0.3,1.5,0.4v10.2H219z M215,138.8c0.7,0,1.2-0.2,1.6-0.5c0.4-0.3,0.7-0.9,0.8-1.6v-5.1
			c-0.5-0.2-1.2-0.4-2-0.4c-0.9,0-1.6,0.3-2.1,0.9c-0.5,0.6-0.8,1.6-0.8,2.9c0,0.6,0,1.1,0.1,1.5c0.1,0.5,0.2,0.9,0.4,1.2
			s0.5,0.6,0.8,0.8C214.1,138.7,214.5,138.8,215,138.8z"/>
		<path class="img-type-st8" d="M222.1,130.7c0.5-0.3,1.1-0.5,1.8-0.7c0.7-0.1,1.4-0.2,2.1-0.2c0.7,0,1.2,0.1,1.7,0.3c0.4,0.2,0.8,0.4,1,0.7
			s0.4,0.6,0.4,1c0.1,0.4,0.1,0.7,0.1,1.1c0,0.8,0,1.6-0.1,2.3c0,0.8-0.1,1.5-0.1,2.2c0,0.5,0,1,0.1,1.4c0,0.4,0.1,0.8,0.2,1.2h-1.2
			l-0.4-1.4h-0.1c-0.1,0.2-0.3,0.4-0.5,0.5c-0.2,0.2-0.4,0.3-0.7,0.5c-0.3,0.1-0.5,0.3-0.9,0.3c-0.3,0.1-0.7,0.1-1.1,0.1
			c-0.4,0-0.8-0.1-1.2-0.2c-0.4-0.1-0.7-0.3-1-0.6c-0.3-0.2-0.5-0.5-0.6-0.9c-0.1-0.3-0.2-0.7-0.2-1.2c0-0.6,0.1-1.1,0.4-1.5
			c0.2-0.4,0.6-0.7,1-0.9s1-0.4,1.6-0.5s1.3-0.2,2-0.2c0.2,0,0.4,0,0.5,0c0.2,0,0.4,0,0.5,0c0-0.4,0.1-0.8,0.1-1.1
			c0-0.7-0.1-1.2-0.4-1.5c-0.3-0.3-0.8-0.5-1.6-0.5c-0.2,0-0.5,0-0.7,0.1c-0.3,0-0.5,0.1-0.8,0.1c-0.3,0.1-0.5,0.1-0.8,0.2
			c-0.3,0.1-0.5,0.2-0.7,0.3L222.1,130.7z M225,138.8c0.4,0,0.7-0.1,1-0.2c0.3-0.1,0.5-0.2,0.8-0.4c0.2-0.2,0.4-0.3,0.5-0.5
			s0.3-0.4,0.3-0.5v-1.7c-0.2,0-0.4,0-0.6,0c-0.2,0-0.4,0-0.6,0c-0.4,0-0.8,0-1.2,0.1c-0.4,0-0.7,0.1-1,0.3
			c-0.3,0.1-0.5,0.3-0.7,0.5s-0.3,0.5-0.3,0.8c0,0.5,0.2,0.9,0.5,1.2C224,138.6,224.4,138.8,225,138.8z"/>
		<path class="img-type-st8" d="M238.8,140v-5.7c0-1-0.2-1.8-0.5-2.3s-0.8-0.8-1.6-0.8c-0.7,0-1.3,0.2-1.8,0.6c-0.5,0.4-0.8,0.9-1,1.4v6.8
			h-1.6v-10h1.1l0.3,1.2h0.1c0.3-0.4,0.7-0.8,1.3-1c0.5-0.3,1.2-0.4,1.9-0.4c0.5,0,1,0.1,1.4,0.2c0.4,0.1,0.8,0.4,1,0.7
			c0.3,0.3,0.5,0.7,0.6,1.3c0.1,0.5,0.2,1.2,0.2,2v6H238.8z"/>
		<path class="img-type-st8" d="M243.9,130h1.6v10h-1.6V130z M243.6,126.9c0-0.3,0.1-0.6,0.3-0.8c0.2-0.2,0.5-0.3,0.8-0.3s0.6,0.1,0.8,0.3
			c0.2,0.2,0.3,0.5,0.3,0.8s-0.1,0.6-0.3,0.8c-0.2,0.2-0.5,0.3-0.8,0.3s-0.6-0.1-0.8-0.3C243.7,127.5,243.6,127.3,243.6,126.9z"/>
		<path class="img-type-st8" d="M248.3,138.6l4.6-6.4l0.8-0.8h-5.5V130h7.1v1.4l-4.7,6.4l-0.8,0.8h5.5v1.4h-7.1L248.3,138.6L248.3,138.6z"/>
		<path class="img-type-st8" d="M258,130.7c0.5-0.3,1.1-0.5,1.8-0.7c0.7-0.1,1.4-0.2,2.1-0.2s1.2,0.1,1.7,0.3c0.4,0.2,0.8,0.4,1,0.7
			s0.4,0.6,0.4,1c0.1,0.4,0.1,0.7,0.1,1.1c0,0.8,0,1.6-0.1,2.3c0,0.8-0.1,1.5-0.1,2.2c0,0.5,0,1,0.1,1.4c0,0.4,0.1,0.8,0.2,1.2H264
			l-0.4-1.4h-0.1c-0.1,0.2-0.3,0.4-0.5,0.5c-0.2,0.2-0.4,0.3-0.7,0.5c-0.3,0.1-0.5,0.3-0.9,0.3c-0.3,0.1-0.7,0.1-1.1,0.1
			s-0.8-0.1-1.2-0.2c-0.4-0.1-0.7-0.3-1-0.6c-0.3-0.2-0.5-0.5-0.6-0.9c-0.1-0.3-0.2-0.7-0.2-1.2c0-0.6,0.1-1.1,0.4-1.5
			c0.2-0.4,0.6-0.7,1-0.9s1-0.4,1.6-0.5s1.3-0.2,2-0.2c0.2,0,0.4,0,0.5,0c0.2,0,0.4,0,0.5,0c0-0.4,0.1-0.8,0.1-1.1
			c0-0.7-0.1-1.2-0.4-1.5s-0.8-0.5-1.6-0.5c-0.2,0-0.5,0-0.7,0.1c-0.3,0-0.5,0.1-0.8,0.1c-0.3,0.1-0.5,0.1-0.8,0.2
			c-0.3,0.1-0.5,0.2-0.7,0.3L258,130.7z M260.8,138.8c0.4,0,0.7-0.1,1-0.2c0.3-0.1,0.5-0.2,0.8-0.4c0.2-0.2,0.4-0.3,0.5-0.5
			s0.3-0.4,0.3-0.5v-1.7c-0.2,0-0.4,0-0.6,0s-0.4,0-0.6,0c-0.4,0-0.8,0-1.2,0.1c-0.4,0-0.7,0.1-1,0.3c-0.3,0.1-0.5,0.3-0.7,0.5
			s-0.3,0.5-0.3,0.8c0,0.5,0.2,0.9,0.5,1.2C259.9,138.6,260.3,138.8,260.8,138.8z"/>
		<path class="img-type-st8" d="M266.9,130h1.6v-2l1.6-0.5v2.4h2.7v1.4h-2.7v5.5c0,0.7,0.1,1.2,0.3,1.5c0.2,0.3,0.5,0.4,0.9,0.4
			s0.6,0,0.9-0.1c0.2-0.1,0.5-0.2,0.8-0.3l0.4,1.2c-0.4,0.2-0.8,0.3-1.2,0.4c-0.4,0.1-0.9,0.2-1.4,0.2c-0.8,0-1.4-0.2-1.7-0.7
			c-0.3-0.5-0.5-1.2-0.5-2.3v-5.8H267L266.9,130L266.9,130z"/>
		<path class="img-type-st8" d="M275.5,130h1.6v10h-1.6V130z M275.2,126.9c0-0.3,0.1-0.6,0.3-0.8c0.2-0.2,0.5-0.3,0.8-0.3s0.6,0.1,0.8,0.3
			c0.2,0.2,0.3,0.5,0.3,0.8s-0.1,0.6-0.3,0.8c-0.2,0.2-0.5,0.3-0.8,0.3s-0.6-0.1-0.8-0.3C275.3,127.5,275.2,127.3,275.2,126.9z"/>
		<path class="img-type-st8" d="M280.1,135c0-1.7,0.4-3,1.1-3.9s1.8-1.3,3.3-1.3c0.7,0,1.4,0.1,2,0.4c0.6,0.2,1,0.6,1.4,1
			c0.4,0.5,0.6,1,0.8,1.7c0.2,0.6,0.3,1.4,0.3,2.2c0,1.7-0.4,3-1.1,3.9c-0.8,0.9-1.8,1.3-3.3,1.3c-0.8,0-1.4-0.1-2-0.4
			c-0.6-0.2-1-0.6-1.4-1.1s-0.6-1-0.8-1.7C280.2,136.5,280.1,135.8,280.1,135z M281.7,135c0,0.5,0,1,0.1,1.5s0.3,0.9,0.5,1.2
			s0.5,0.6,0.8,0.8c0.4,0.2,0.8,0.3,1.3,0.3c1.8,0,2.7-1.3,2.7-3.8c0-0.5-0.1-1-0.2-1.5s-0.3-0.9-0.5-1.2s-0.5-0.6-0.8-0.8
			s-0.8-0.3-1.3-0.3C282.7,131.1,281.7,132.4,281.7,135z"/>
		<path class="img-type-st8" d="M298,140v-5.7c0-1-0.2-1.8-0.5-2.3s-0.8-0.8-1.6-0.8c-0.7,0-1.3,0.2-1.8,0.6c-0.5,0.4-0.8,0.9-1,1.4v6.8h-1.6
			v-10h1.1l0.3,1.2h0.1c0.3-0.4,0.7-0.8,1.3-1c0.5-0.3,1.2-0.4,1.9-0.4c0.5,0,1,0.1,1.4,0.2c0.4,0.1,0.8,0.4,1,0.7
			c0.3,0.3,0.5,0.7,0.6,1.3c0.1,0.5,0.2,1.2,0.2,2v6H298z"/>
		<path class="img-type-st8" d="M307.1,137.3c0-0.4-0.1-0.7-0.4-0.9c-0.2-0.2-0.5-0.4-0.9-0.6c-0.4-0.2-0.7-0.3-1.2-0.4
			c-0.4-0.1-0.8-0.3-1.2-0.5c-0.4-0.2-0.7-0.5-0.9-0.9c-0.2-0.3-0.4-0.8-0.4-1.4c0-1,0.3-1.7,0.8-2.1c0.6-0.4,1.3-0.7,2.3-0.7
			c0.7,0,1.3,0.1,1.8,0.2c0.5,0.1,0.9,0.3,1.3,0.5l-0.4,1.3c-0.3-0.1-0.7-0.3-1.1-0.4c-0.4-0.1-0.9-0.2-1.4-0.2
			c-0.6,0-1,0.1-1.3,0.3s-0.4,0.5-0.4,1c0,0.3,0.1,0.6,0.4,0.8c0.2,0.2,0.5,0.4,0.9,0.5c0.4,0.2,0.7,0.3,1.2,0.5
			c0.4,0.1,0.8,0.3,1.2,0.6c0.4,0.2,0.6,0.5,0.9,0.9c0.2,0.4,0.4,0.9,0.4,1.5c0,0.4-0.1,0.8-0.2,1.2s-0.4,0.7-0.7,1
			c-0.3,0.3-0.7,0.5-1.1,0.6c-0.4,0.2-0.9,0.2-1.5,0.2c-0.8,0-1.4-0.1-2-0.2c-0.5-0.1-1-0.3-1.3-0.5l0.5-1.4
			c0.3,0.2,0.7,0.3,1.2,0.5c0.5,0.1,1,0.2,1.5,0.2c0.6,0,1-0.1,1.4-0.3C306.9,138.3,307.1,137.9,307.1,137.3z"/>
	</g>
	<g id="img-type-l1">
		<g>
			<path class="img-type-st3" d="M215.1,40.1c-0.7,1.4-1.7,2.9-2.9,4.4c-1.3,1.6-2.7,3.1-4.3,4.6s-3.4,2.9-5.2,4.2s-3.7,2.3-5.5,3.2
				c-0.6,0.3-1.2,0.4-2,0.5c-0.8,0-1.4-0.1-1.9-0.5c-1-0.8-1.4-1.8-1.4-3s0.6-2.2,1.7-2.9c2-1,4-2.1,6.1-3.5s3.9-2.8,5.4-4.3
				c1.6-1.5,2.8-3,3.7-4.5s1.3-2.9,1.2-4.1c-0.2-1.3-0.8-2.4-1.7-3.1c-0.9-0.8-2-1.2-3.4-1.5c-1.4-0.2-2.9-0.2-4.6,0
				c-1.7,0.2-3.5,0.7-5.2,1.3c-0.6,0.1-1.1,0.2-1.6,0.2s-0.9-0.3-1.3-0.7c-0.6-0.8-0.9-1.6-1.2-2.5c-0.2-0.9,0-1.7,0.6-2.3
				c1.2-0.8,2.5-1.6,3.8-2.5c1.4-0.9,2.7-1.9,3.8-2.9c1.2-1,2.1-2.2,2.9-3.4c0.7-1.2,1-2.5,0.8-3.9c-0.1-0.6-0.4-1-1-1.3
				c-0.6-0.4-1.3-0.6-2.1-0.8s-1.7-0.2-2.6-0.1c-0.9,0.1-1.7,0.3-2.5,0.6c-0.4,0.4-0.9,0.6-1.4,0.7c-0.5,0.1-1,0.2-1.5,0.2
				s-0.9-0.1-1.3-0.3c-0.3-0.2-0.6-0.4-0.7-0.7c-0.2-0.3-0.3-0.8-0.4-1.5c0-0.7,0.1-1.2,0.5-1.6c0.8-1.1,2.2-2,4.4-2.7
				s4.7-0.8,7.7-0.5c2.4,0.4,4.1,1.4,5.3,2.9s1.8,3.3,1.8,5.4c0,1.6-0.4,3.3-1.2,5.2c-0.8,1.8-2,3.6-3.6,5.3c1.9-0.2,3.7,0,5.2,0.7
				s2.8,1.7,3.8,2.9c1.4,1.7,2.3,3.8,2.6,6.1C216.5,35.8,216.2,38,215.1,40.1z"/>
			<path class="img-type-st3" d="M252.3,25.4c0,1.6-0.3,3.6-0.8,5.9s-1.4,4.7-2.6,7c-1.2,2.4-2.7,4.6-4.6,6.7c-1.9,2.1-4.2,3.7-7,4.8
				c-1.7,0.8-3.4,1.2-5.1,1.2c-1.7,0-3.2-0.3-4.6-1c-1.4-0.7-2.5-1.8-3.4-3.2s-1.4-3.3-1.7-5.6c-0.2-2.7,0-5.4,0.7-8.2
				c0.7-2.7,1.7-5.3,3.1-7.7c1.4-2.4,3.1-4.5,5.2-6.4c2-1.9,4.3-3.4,6.8-4.5c0.6-0.3,1.1-0.2,1.6,0.1s0.8,1,1,1.9
				c3.6,0.3,6.4,1.3,8.4,2.9C251.3,20.9,252.3,22.9,252.3,25.4z M229.6,41c0.1,1,0.4,1.7,0.8,2.1c0.4,0.4,0.9,0.7,1.5,0.8
				s1.2,0,1.9-0.2s1.4-0.5,2-0.8c0.7-0.3,1.3-0.7,1.8-1c0.6-0.4,1-0.8,1.4-1.1c1.9-1.8,3.5-4,4.7-6.6s1.9-5.5,2.2-8.6
				c0-0.4-0.3-0.8-0.8-1.2c-0.6-0.4-1.3-0.7-2.1-1c-0.9-0.2-1.8-0.4-2.9-0.6c-1-0.1-2.1-0.2-3-0.1c-1,1.2-2.1,2.5-3,3.8
				c-1,1.4-1.8,2.9-2.5,4.4c-0.7,1.6-1.2,3.2-1.6,4.9C229.6,37.6,229.5,39.3,229.6,41z"/>
			<path class="img-type-st3" d="M276.8,19.4c-0.1,2.2-0.3,4.4-0.6,6.5c-0.3,2.1-0.9,4.1-1.6,5.9c-0.4,1-1,2-1.7,3s-1.5,2-2.4,2.8
				s-2,1.5-3.1,1.9s-2.2,0.5-3.4,0.2c-1-0.3-1.9-0.8-2.5-1.5c-0.7-0.7-1.2-1.5-1.6-2.4s-0.6-1.8-0.8-2.8c-0.1-1-0.1-1.9,0-2.7
				c0.1-1.4,0.5-3,1.1-4.5c0.6-1.6,1.4-3.1,2.4-4.5c1-1.5,2.1-2.8,3.3-4c1.2-1.2,2.6-2.2,4-3c0.8-0.3,1.6-0.6,2.4-0.8
				s1.6-0.1,2.2,0.2c0.3,0.2,0.6,0.6,0.6,1.2c0.1,0.6-0.1,1-0.6,1.5l-0.6,0.6h0.4c0.7,0.1,1.3,0.3,1.8,0.8
				C276.5,18.1,276.8,18.7,276.8,19.4z M299.6,9.9c-3.2,6.4-6.1,13.3-8.7,20.7s-5.1,14.6-7.4,21.6c-0.3,0.8-0.9,1.3-1.5,1.7
				c-0.7,0.3-1.2,0.3-1.7,0c-0.5-0.4-0.8-1-1-1.6c-0.2-0.7-0.4-1.4-0.4-2.1c-0.1-0.8-0.1-1.5,0-2.3s0.2-1.4,0.3-2
				c1.8-6.7,4-13.3,6.5-19.8s5.6-13,9.1-19.4c0.3-0.7,0.8-1.1,1.5-1.4c0.6-0.2,1.2-0.3,1.8-0.1c0.8,0.3,1.5,0.9,1.9,1.8
				C300.4,7.7,300.3,8.7,299.6,9.9z M314.4,32.8c1.4,2.6,2.1,5,2,7c0,2-0.5,3.8-1.3,5.3c-0.9,1.5-2,2.8-3.4,3.8s-2.8,1.9-4.2,2.5
				c-3.3,1.5-5.9,1.6-7.6,0.5c-1.8-1.1-2.6-3.2-2.5-6.3c0.1-1.5,0.5-3.1,1.4-4.9c0.8-1.8,1.9-3.5,3.2-5.1c1.3-1.6,2.7-3,4.2-4.1
				c1.5-1.1,3-1.7,4.4-1.7c0.8,0,1.5,0.2,2.1,0.6C313.2,30.8,313.8,31.6,314.4,32.8z M303.4,45.8c0.1,0.3,0.4,0.4,1,0.3
				c0.6-0.1,1.3-0.5,2.1-0.9c0.8-0.5,1.6-1.1,2.3-1.8c0.8-0.7,1.3-1.5,1.7-2.4c0.1-0.2,0.1-0.6,0-1c-0.1-0.5-0.2-1-0.3-1.4
				c-0.1-0.5-0.3-0.9-0.5-1.3c-0.2-0.4-0.4-0.6-0.6-0.6c-0.7-0.1-1.4,0.3-2.1,1c-0.7,0.8-1.4,1.7-1.9,2.8c-0.6,1.1-1,2.1-1.4,3.2
				C303.4,44.6,303.2,45.4,303.4,45.8z M265.1,30.4c-0.1,0.5,0,1,0.2,1.5s0.5,0.7,1,0.7c1,0,1.8-0.6,2.3-1.9
				c0.6-1.2,1.1-2.5,1.4-3.6c0.3-1,0.5-2.1,0.6-3.2s0.2-2.4,0.4-3.8c-1.4,1.7-2.7,3.5-3.9,5.3C265.9,27.2,265.3,28.9,265.1,30.4z"/>
		</g>
		<g>
			<path class="img-type-st3" d="M194.4,86.8c-0.5,0.1-1.1,0-1.8-0.2s-1.1-0.6-1.4-1.4c-0.1-0.4-0.1-0.7,0-1.1s0.5-0.6,1.2-0.8
				c0.7-0.1,1.4-0.3,2.1-0.4c0.7-0.1,1.5-0.3,2.3-0.4l-2-6.2c-0.6-2.3-0.7-4.4-0.2-6c0.5-1.7,1.8-2.9,4.1-3.6
				c0.9-0.3,1.8-0.4,2.7-0.3s1.7,0.3,2.5,0.7c0.8,0.4,1.5,0.9,2.2,1.6s1.2,1.4,1.6,2.3c0.1,0.4,0.2,0.8,0.3,1.1
				c0,0.3-0.1,0.6-0.4,0.8c-0.4,0.4-0.8,0.5-1.2,0.5c-0.4-0.1-0.7-0.2-0.9-0.4c-0.3-0.4-0.7-0.8-1.1-1.2c-0.4-0.4-0.8-0.8-1.2-1.1
				c-0.4-0.3-0.9-0.6-1.3-0.7c-0.5-0.2-1-0.2-1.5-0.1c-0.3,0-0.6,0.2-0.9,0.4c-0.3,0.2-0.6,0.6-0.9,1c-0.3,0.5-0.4,1.1-0.5,1.8
				c-0.1,0.7,0.1,1.6,0.4,2.7c0.3,0.9,0.6,1.9,0.9,3c0.3,1.1,0.7,2.2,1.1,3.3c1.8-0.2,3.4-0.2,4.8-0.2c0.8,0.1,1.6,0.2,2.3,0.4
				c0.7,0.2,1.3,0.6,1.7,1c0.1,0.4,0.1,0.7,0,0.9c-0.1,0.2-0.4,0.4-0.6,0.6c-0.3,0.2-0.6,0.3-0.9,0.4c-0.3,0.1-0.7,0.1-1,0.2
				c-0.7,0.1-1.5,0.2-2.3,0.3c-0.8,0.1-1.6,0.2-2.5,0.3c0.6,1.6,1.1,3.2,1.6,4.7s0.9,2.7,1.2,3.7c0.1,0.5,0.2,1.1,0,1.8
				c-0.1,0.6-0.2,1.2-0.4,1.8c-0.3,0.8-0.7,1.5-1.1,2c-0.4,0.5-0.9,0.7-1.4,0.5c-0.4-0.2-0.7-0.4-0.8-0.7c-0.1-0.3-0.1-0.7,0-1.2
				c0.1-0.6,0.1-1.2,0.1-1.8c0-0.6,0-1.1-0.1-1.6s-0.1-0.9-0.2-1.3c-0.1-0.4-0.1-0.6-0.2-0.8l-2.3-6.7c-0.6,0.1-1.2,0.1-1.8,0.2
				C195.6,86.6,195,86.7,194.4,86.8z"/>
			<path class="img-type-st3" d="M225.4,77.6c1.1,0.4,2,1,2.8,1.8c0.7,0.8,1.3,1.7,1.7,2.7s0.6,2.1,0.7,3.1c0.1,1.1-0.1,2.1-0.3,3
				c-0.4,1-0.9,2-1.5,3s-1.3,1.9-2.2,2.6c-0.8,0.8-1.7,1.4-2.8,1.9c-1,0.5-2.2,0.7-3.4,0.7c-1.5,0-2.8-0.3-3.8-1s-1.8-1.6-2.4-2.7
				c-0.6-1.1-1-2.4-1.1-3.8c-0.2-1.4-0.1-2.8,0.1-4.2c0.1-1,0.4-2,0.7-3c0.4-1,0.8-1.8,1.4-2.6c0.6-0.8,1.2-1.4,1.9-1.8
				c0.7-0.5,1.5-0.7,2.5-0.7c0.5,0,1.1,0.1,1.9,0.3c0.8,0.2,1.5,0.5,2.1,0.9C224.1,77.4,224.7,77.3,225.4,77.6z M223.3,81.6
				c-0.4-0.2-0.9-0.6-1.4-1s-1-0.6-1.4-0.6s-0.9,0.2-1.3,0.6c-0.4,0.4-0.8,0.9-1.1,1.4s-0.6,1.1-0.8,1.6c-0.2,0.6-0.4,1-0.4,1.3
				c-0.1,0.5-0.2,1.2-0.2,2s0,1.5,0.2,2.3c0.1,0.8,0.4,1.4,0.8,2c0.4,0.6,1.1,1,1.9,1.3c0.5,0.2,1.1,0.2,1.8,0s1.4-0.5,2.1-0.9
				c0.7-0.4,1.3-1,1.9-1.8c0.6-0.7,1.1-1.6,1.4-2.5c0.4-1.1,0.4-2.2,0-3.3c-0.3-1.2-1.1-2-2.1-2.5c-0.3,0.2-0.5,0.3-0.8,0.3
				C223.7,81.7,223.5,81.7,223.3,81.6z"/>
			<path class="img-type-st3" d="M251.3,77.8c-0.7,0.4-1.4,0.8-2.1,1.2c-0.7,0.4-1.4,0.9-2.1,1.4c-0.7,0.5-1.4,1.2-2,1.9
				c-0.6,0.7-1.2,1.6-1.7,2.6c-0.7,1.4-1.2,2.8-1.5,4.3c-0.3,1.4-0.4,2.9-0.5,4.3c0,0.7-0.2,1.3-0.5,2s-0.7,1-1.3,1
				c-0.7,0-1.3-0.4-1.7-1.1s-0.7-1.4-0.8-2.1c-0.6-2.6-1.1-5.2-1.5-7.7c-0.4-2.6-0.7-5.1-1-7.6c0-0.5,0.2-0.8,0.5-1
				c0.3-0.1,0.7-0.2,1.1-0.2c0.4,0,0.9,0.2,1.3,0.3c0.4,0.2,0.6,0.5,0.7,0.9c0.1,1.4,0.3,2.8,0.5,4.3s0.4,2.8,0.7,3.8
				c0.1-1.2,0.5-2.5,1.2-3.6c0.7-1.2,1.5-2.2,2.5-3.2s2.1-1.8,3.3-2.4c1.2-0.7,2.5-1.1,3.8-1.3c0.6-0.1,1-0.1,1.4,0s0.6,0.2,0.8,0.4
				c0.1,0.2,0.2,0.5,0.1,0.9C252.1,77.1,251.8,77.5,251.3,77.8z"/>
			<path class="img-type-st3" d="M257.8,79c0,0.6,0.1,1.3,0.2,2.2c0.1,0.9,0.2,1.8,0.3,2.7c0.1,0.9,0.2,1.9,0.4,2.8c0.1,0.9,0.2,1.8,0.4,2.5
				c0.4-0.8,0.9-1.8,1.5-3s1.2-2.3,1.8-3.4c0.6-1.1,1.3-2,2-2.8c0.7-0.7,1.3-1.1,1.8-1.1c0.6,0,1.1,0.3,1.6,0.9s0.9,1.3,1.3,2.1
				c0.4,0.8,0.7,1.7,1,2.6s0.5,1.7,0.7,2.4c0.1-0.5,0.3-1,0.6-1.6c0.2-0.6,0.5-1.2,0.8-1.9c0.3-0.6,0.6-1.3,0.9-1.9
				c0.4-0.6,0.7-1.2,1.1-1.7c0.5-0.5,1-0.9,1.5-1.1c0.6-0.2,1-0.4,1.2-0.4c0.3,0,0.7,0.1,1.2,0.3c0.5,0.2,0.9,0.5,1.4,0.8
				s0.9,0.7,1.3,1.2s0.8,0.9,1,1.4c0.5,1,0.9,2.1,1.2,3.3c0.3,1.2,0.5,2.3,0.7,3.3c0.1,1.1,0.2,2,0.3,2.8c0.1,0.8,0.1,1.4,0.1,1.7
				c0,0.5-0.1,0.8-0.2,1.1c-0.1,0.2-0.3,0.4-0.6,0.6c-0.4,0.2-0.8,0.2-1,0.2c-0.3-0.1-0.5-0.2-0.7-0.3c-0.2-0.2-0.3-0.4-0.4-0.6
				s-0.2-0.5-0.2-0.6c-0.1-0.8-0.2-1.7-0.4-2.6c-0.1-0.9-0.3-1.7-0.4-2.6c-0.1-0.8-0.3-1.6-0.5-2.3c-0.2-0.7-0.4-1.4-0.6-1.9
				c-0.1-0.1-0.2-0.3-0.4-0.6c-0.2-0.2-0.4-0.5-0.6-0.7s-0.4-0.4-0.6-0.5s-0.3-0.2-0.4-0.3c-0.4,0-0.8,0.3-1.2,1
				c-0.4,0.7-0.8,1.5-1.2,2.5c-0.4,0.9-0.7,1.9-1,3c-0.3,1-0.5,1.9-0.7,2.7c0,1-0.2,1.7-0.5,2.1c-0.4,0.5-0.8,0.7-1.2,0.7
				c-0.4,0-0.8-0.2-1.3-0.5s-0.8-0.7-0.9-1.1c-0.2-0.6-0.5-1.2-0.7-2c-0.3-0.7-0.5-1.5-0.8-2.3s-0.6-1.5-0.8-2.3
				c-0.3-0.7-0.5-1.4-0.8-2c-0.5,0.7-1,1.5-1.5,2.3s-1,1.7-1.4,2.6c-0.5,0.9-0.9,1.7-1.3,2.6s-0.8,1.6-1.2,2.3
				c-0.3,0.4-0.5,0.8-0.8,1.1c-0.3,0.3-0.6,0.5-1,0.5c-0.3,0-0.6-0.1-0.9-0.4s-0.6-0.6-0.9-1s-0.6-0.9-0.8-1.4
				c-0.2-0.5-0.4-1-0.5-1.5c-0.3-1.6-0.5-3.3-0.8-5.2c-0.2-1.9-0.4-3.7-0.6-5.5c0-0.6,0-1.2,0.2-1.7s0.6-0.9,1.2-1.1
				c0.6-0.1,1.1,0,1.4,0.3C257.5,77.9,257.8,78.4,257.8,79z"/>
			<path class="img-type-st3" d="M302.3,76.4c0.1,1,0.3,2.1,0.4,3.3c0.1,1.2,0.2,2.3,0.2,3.5c0.1,1.2,0.1,2.3,0.1,3.4s0,2.1-0.1,3
				c1.2,0.8,1.9,1.5,2.1,2.1s0.3,1.2,0.1,1.7c-0.2,0.7-0.6,1-1.2,1s-1.2-0.2-2-0.6c-0.5,0.4-1.1,0.8-1.8,1.2
				c-0.7,0.4-1.4,0.8-2.1,1.2c-0.7,0.4-1.5,0.7-2.2,1s-1.4,0.5-2,0.6c-1.2,0.2-2.2,0-3.2-0.7c-0.9-0.6-1.6-1.6-1.9-2.8
				c-0.2-0.8-0.3-1.7-0.2-2.6c0.1-0.9,0.4-1.8,0.8-2.6c0.4-0.8,1-1.6,1.8-2.2c0.8-0.7,1.6-1.2,2.7-1.5c0.3-0.1,0.6-0.2,1.1-0.3
				c0.5-0.1,0.9-0.1,1.4-0.1s1,0.1,1.5,0.3c0.5,0.2,1,0.5,1.4,0.9c0-0.6,0-1.3,0-2.1c0-0.7-0.1-1.5-0.1-2.3s-0.1-1.5-0.1-2.2
				c-0.1-0.7-0.1-1.3-0.2-1.7c-0.1-0.6-0.3-0.9-0.6-1c-0.3-0.1-0.8-0.1-1.3,0.1c-0.9,0.3-1.9,0.9-3.1,1.7c-1.2,0.8-2.3,1.7-3.3,2.7
				c-0.3,0.3-0.7,0.5-1.1,0.5s-0.8-0.2-1.1-0.5c-0.3-0.3-0.5-0.6-0.5-1s0.1-0.8,0.4-1.2c0.6-0.7,1.3-1.3,2.1-2
				c0.8-0.7,1.6-1.3,2.4-1.9s1.7-1,2.6-1.4s1.8-0.6,2.6-0.6c1.3,0,2.3,0.3,3,0.9C301.7,74.7,302.1,75.5,302.3,76.4z M295.9,88.3
				c-0.5,0.1-1,0.4-1.5,0.7c-0.5,0.3-1,0.8-1.4,1.3s-0.7,1-0.9,1.6c-0.2,0.6-0.2,1.2,0,1.8c0.1,0.2,0.2,0.4,0.5,0.5
				c0.2,0.1,0.5,0.1,0.8,0.1c0.9-0.2,1.9-0.5,3-1.1c1.1-0.5,2-1.1,2.7-1.7c0-0.2-0.1-0.5-0.3-0.8c-0.2-0.4-0.5-0.7-0.8-1
				c-0.3-0.4-0.6-0.7-1-0.9C296.5,88.3,296.2,88.2,295.9,88.3z"/>
			<path class="img-type-st3" d="M312.8,71.1c0.2,4,0.5,8.1,0.9,12.4s0.9,8.4,1.4,12.3c0.1,1.6-0.3,2.4-1.3,2.5c-0.2,0-0.4-0.1-0.7-0.3
				c-0.2-0.2-0.4-0.4-0.6-0.6c-0.2-0.3-0.4-0.5-0.5-0.8c-0.2-0.3-0.3-0.5-0.3-0.8c-0.3-1.9-0.6-3.9-0.8-5.9
				c-0.3-2.1-0.5-4.2-0.7-6.3c-0.2-2.1-0.4-4.2-0.5-6.2s-0.2-3.9-0.3-5.6c0.1-0.9,0.2-1.6,0.4-2.2c0.2-0.6,0.6-0.9,1.2-0.8
				c0.6,0,1.1,0.3,1.3,0.7C312.6,69.8,312.8,70.4,312.8,71.1z"/>
		</g>
	</g>
</g>
<g id="img-type-r-arrow">
	<g>
		<g>
			<polyline class="img-type-st2" points="583.5,317.6 583.5,282 557.5,234.2 			"/>
			<path class="img-type-st10" d="M546,227.4c0-2.7,2.2-4.9,4.9-4.9s5,2.2,5,4.9s-2.3,4.9-5,4.9C548.2,232.3,546,230.2,546,227.4"/>
		</g>
		<path class="img-type-st2" d="M546,227.4c0-2.7,2.2-4.9,4.9-4.9s5,2.2,5,4.9s-2.3,4.9-5,4.9C548.2,232.3,546,230.2,546,227.4z"/>
	</g>
</g>
<g id="img-type-l-arrow">
	<g>
		<polyline class="img-type-st2" points="338.9,9 338.9,58 364.4,100.7 		"/>
		<path class="img-type-st10" d="M370.9,102.3c0,2.7-2.3,5-5,5s-5-2.3-5-5s2.3-5,5-5S370.9,99.6,370.9,102.3"/>
		<path class="img-type-st2" d="M370.9,102.3c0,2.7-2.3,5-5,5s-5-2.3-5-5s2.3-5,5-5S370.9,99.6,370.9,102.3z"/>
	</g>
</g>
</svg>
